<?xml version="1.0" encoding="UTF-8" standalone="no"?>
<svg xmlns="http://www.w3.org/2000/svg" width="250px" height="250px" viewBox="0 0 228.83548 223.3913" version="1.1">
	<style type="text/css">
		.primary { fill: #dc143c; }
		.secondary { fill: #000; }
	</style>
	<g transform="translate(-8.8195682,-11.181047)">
		<path class="secondary" transform="matrix(0.94204848,0,0,0.94204848,7.0133539,6.9920842)"
			d="m 123.69336,4.5214844 c -3.1448,-0.04339 -6.29179,0.2759101 -9.32031,1.078125 -14.30615,3.7895 -26.848816,15.1764876 -31.451175,29.0019526 -1.820983,5.470219 -2.407368,11.425212 -1.734375,17.214844 0.371298,3.19419 1.087489,6.379273 1.962891,9.439453 -0.203218,0.05205 -0.326408,0.08598 -0.533203,0.138672 C 61.519377,66.770455 43.856147,72.534477 30.558594,78.339844 17.26104,84.145211 8.0196588,88.798947 3.7460938,97.626953 0.59563283,104.13496 2.9657474,111.87259 7.7636719,117.00195 c 7.4287841,7.94197 18.9516841,10.96539 40.0996091,13.59961 5.806568,0.72328 9.132184,1.31868 11.5,1.83985 -0.244844,1.23478 -0.474998,2.54134 -1.171875,4.45117 -1.81148,4.96447 -5.01701,12.03924 -9.667968,21.23047 -4.655998,9.20118 -8.879265,17.06522 -21.908204,40.79492 -1.838521,3.3485 -4.455211,8.33925 -5.982422,11.41211 l -2.630859,5.28906 a 7.2501022,7.2501022 0 0 0 -0.744141,3.6543 l 0.179688,3.05468 a 7.2501022,7.2501022 0 0 0 0,0.002 c 0.238044,4.03121 1.353526,8.02061 3.859375,11.26953 2.505849,3.24892 6.180514,5.35375 10.021484,6.42383 1.834622,0.5111 2.603536,0.49188 4.087891,0.64062 1.484355,0.14874 3.192248,0.27631 4.888672,0.35547 3.882504,0.18122 16.189782,0.25475 28.726562,0.23438 l 22.708985,-0.0371 a 7.2501022,7.2501022 0 0 0 4.386719,-1.48633 l 1.367187,-1.04492 c 4.519485,-3.44779 7.283445,-8.28457 10.867185,-15.17969 3.58375,-6.89512 7.42127,-15.74753 11.4043,-26.28516 1.80579,-4.77744 2.67936,-6.99968 3.31055,-8.41015 0.93235,1.87453 1.8767,3.70926 3.74023,8.62109 3.86126,10.17741 7.67334,18.92966 11.23047,25.80664 3.55713,6.87698 6.25622,11.71054 10.64258,15.22266 a 7.2501022,7.2501022 0 0 0 0.002,0.002 l 1.45508,1.16406 a 7.2501022,7.2501022 0 0 0 4.53516,1.58985 l 26.70507,-0.0234 c 9.61525,-0.009 16.51045,-0.0474 21.31446,-0.12695 4.804,-0.0796 6.95572,-0.0603 9.37695,-0.45899 4.68784,-0.77187 9.15627,-2.53317 12.35937,-6.08984 3.20311,-3.55668 4.45459,-8.32008 4.48438,-12.97656 a 7.2501022,7.2501022 0 0 0 0,-0.002 l 0.0215,-3.40234 a 7.2501022,7.2501022 0 0 0 -0.78906,-3.33399 l -2.69336,-5.28906 v -0.002 c -1.58455,-3.11478 -5.18747,-9.85257 -8.18164,-15.31445 -19.73301,-35.99648 -26.13728,-48.87752 -29.35351,-58.32813 -0.51471,-1.51243 -0.68354,-2.41174 -0.91797,-3.42578 2.35435,-0.48484 5.89882,-1.07547 13.03711,-2.0293 19.68865,-2.63084 29.91317,-5.33468 37.21679,-12.00976 3.10998,-2.84236 5.54436,-6.50723 6.53907,-10.32618 0.71462,-2.74364 0.73407,-6.15651 -0.39454,-9.093745 -1.1286,-2.937236 -2.99411,-5.167997 -5.14648,-7.275391 -8.05307,-7.884818 -21.39994,-13.896024 -42.42773,-20.927734 -11.39978,-3.812091 -20.31438,-6.432767 -32.07032,-9.425781 -0.19843,-0.05052 -0.2203,-0.06447 -0.41015,-0.113281 2.3753,-8.023139 2.87483,-16.411939 0.92968,-24.107422 -3.70773,-14.668687 -16.23123,-26.772081 -31.30859,-31.2734379 -2.99673,-0.894677 -6.12681,-1.2964826 -9.26953,-1.3398437 z"
		/>
		<path class="primary"
			d="m 44.027027,227.03794 c -4.193027,-0.298 -5.911675,-0.61901 -7.602135,-1.41993 -0.959614,-0.45465 -2.112775,-1.13776 -2.562582,-1.51803 -2.103991,-1.77867 -3.249938,-4.58255 -3.47143,-8.4938 l -0.144107,-2.54473 3.238467,-6.32556 c 1.781157,-3.47906 6.212626,-11.76545 9.847709,-18.41419 9.360046,-17.12001 12.435595,-22.9365 17.001477,-32.15329 7.28231,-14.70024 10.106912,-22.2058 10.111388,-26.86806 0.0015,-1.56931 -0.07721,-1.89735 -0.574661,-2.3948 -1.335745,-1.33575 -5.450704,-2.25838 -16.776118,-3.76146 -15.135396,-2.00873 -22.343519,-3.70745 -27.948703,-6.58664 -7.213239,-3.70519 -10.635525,-9.72583 -8.299577,-14.60099 0.923457,-1.92727 4.359117,-5.189116 7.975574,-7.572081 9.731425,-6.412251 29.101198,-13.926494 52.354992,-20.310413 4.551667,-1.249581 15.508731,-4.147525 16.388208,-4.334385 0.750345,-0.159423 0.71215,-0.551351 -0.30664,-3.146444 C 92.105211,63.654453 90.971421,59.06901 90.483406,55.368101 89.160311,45.334268 92.664571,36.060815 100.68391,28.37414 c 3.11942,-2.990016 6.10345,-5.105776 9.76833,-6.926003 3.83992,-1.907164 6.76172,-2.792636 10.19535,-3.089763 2.32736,-0.201398 5.70903,-0.05007 7.67692,0.343529 6.90513,1.38111 15.39072,6.79435 20.38776,13.006041 5.29772,6.585437 7.52081,13.265637 7.15802,21.509164 -0.17912,4.069944 -0.91418,7.709532 -2.43669,12.065065 -0.6775,1.938195 -1.23185,3.655051 -1.23188,3.815235 -8e-5,0.407406 1.94767,1.008653 11.09159,3.423837 21.1697,5.591554 40.28386,12.278663 51.57834,18.044741 9.60135,4.90169 15.34537,10.244844 15.34537,14.274454 0,1.43387 -0.70876,3.80862 -1.58081,5.29668 -0.81245,1.38633 -4.15094,4.5233 -5.97358,5.61298 -5.3048,3.17153 -12.2071,4.92362 -28.58691,7.25656 -16.81399,2.39477 -17.87208,2.71598 -18.29671,5.55435 -0.21578,1.4423 0.3898,4.71947 1.48591,8.04124 3.12471,9.46948 8.77191,20.82223 27.02864,54.33657 2.83774,5.20934 6.59412,12.21517 8.34749,15.56853 l 3.18794,6.09703 -0.14272,2.87599 c -0.0785,1.58179 -0.3258,3.49288 -0.54957,4.24687 -0.92116,3.1037 -3.19038,5.25187 -6.7511,6.39095 -2.94631,0.94252 -6.70829,1.06636 -32.71981,1.07707 l -23.02106,0.01 -1.20609,-1.00979 c -4.16788,-3.48955 -10.22486,-14.87088 -16.83943,-31.64201 -5.21005,-13.20998 -6.24553,-15.49035 -7.87832,-17.35 -1.04501,-1.19021 -2.00225,-1.6323 -3.5647,-1.64634 -3.04399,-0.0273 -5.05052,2.50554 -8.03909,10.14796 -6.45356,16.5031 -9.00586,22.4819 -12.16706,28.50155 -3.212797,6.1179 -5.470125,9.44133 -7.955647,11.71296 l -1.406723,1.28567 -24.219509,-0.0435 c -13.320728,-0.0239 -24.72424,-0.0794 -25.341134,-0.12324 z"
		/>
	</g>
</svg>