<?xml version="1.0" encoding="UTF-8" standalone="no"?>
<svg xmlns="http://www.w3.org/2000/svg" width="250px" height="250px" version="1.1" viewBox="0 0 228.83548 223.3913">
	<style type="text/css">
		.primary { fill: #2222ee; }
		.secondary { fill: #fff; }
	</style>
	<g transform="translate(-8.8195682,-11.181047)">
		<path class="secondary"
			d="m 134.04297,11.439453 c -1.19206,0.01485 -2.34353,0.110679 -3.39844,0.267578 -7.70966,1.146669 -15.32543,4.785023 -22.70508,9.396485 -5.85943,3.6615 -11.333588,7.915796 -15.763669,12.693359 0.401475,-0.810361 0.965622,-1.933893 1.298828,-2.611328 0.555145,-1.128653 1.004872,-2.04762 1.332032,-2.730469 0.16358,-0.341424 0.291963,-0.61469 0.416015,-0.886719 0.06203,-0.136014 0.116564,-0.254315 0.21875,-0.501953 0.05109,-0.123818 0.107957,-0.245931 0.242188,-0.648437 0.06712,-0.201254 0.159163,-0.425863 0.298828,-1.126953 0.06983,-0.350546 0.177736,-1.813448 0.177734,-1.814454 -10e-7,-5.02e-4 -0.279212,-2.234039 -0.279297,-2.234374 -8.4e-5,-3.36e-4 -2.41194,-4.249832 -2.412109,-4.25 -4.95e-4,-4.96e-4 -3.005094,-2.001639 -3.005859,-2.001954 -7.66e-4,-3.15e-4 -1.684339,-0.532287 -2.302735,-0.613281 -1.236791,-0.161988 -1.945761,-0.06305 -2.478515,0.01172 -1.065509,0.149527 -1.46266,0.320757 -1.794922,0.4375 -0.664526,0.233486 -0.87394,0.352245 -1.080078,0.453125 -0.412277,0.201759 -0.605116,0.314542 -0.824219,0.439453 -0.438206,0.249822 -0.859754,0.505382 -1.365234,0.816406 -1.010961,0.622048 -2.290453,1.434584 -3.681641,2.330078 -2.782376,1.790989 -5.909194,3.849435 -7.929688,5.269532 -9.439774,6.634718 -16.227927,12.475314 -20.535156,19.03125 -3.663847,5.576662 -7.708013,14.302236 -11.191406,22.986328 -0.154997,-0.01431 -0.230781,-0.03997 -0.416016,-0.05078 -0.392582,-0.02291 -0.835136,-0.05954 -1.738281,0.03711 -0.903145,0.09665 -2.63687,-0.7123 -5.998047,3.064453 -2.240694,2.51768 -1.646839,2.601106 -1.800781,3.011719 -0.153942,0.410613 -0.227092,0.653915 -0.296875,0.890625 -0.139567,0.473419 -0.237899,0.871225 -0.345703,1.320312 -0.215609,0.898175 -0.437728,1.938058 -0.654297,3.0625 -0.379441,1.970088 -0.961285,4.706647 -0.775391,3.921875 -0.235851,0.995672 -0.636907,3.84831 0.728516,6.591797 1.181515,2.373969 2.744982,3.410658 3.851562,4.029297 -0.725863,3.548752 -1.505185,6.884278 -1.974609,9.66406 -2.065042,12.22853 -1.860673,20.98997 0.806641,38.125 0.837128,5.37779 2.369868,14.04279 3.179687,17.70508 -0.0086,-0.039 0.0095,0.0564 0.0625,0.34375 0.05298,0.2874 -0.173802,0.38499 0.710938,2.42383 0.442369,1.01942 1.118539,4.26396 6.617187,5.41015 2.749324,0.5731 5.628668,-0.42579 7.058594,-1.39257 1.429926,-0.96679 1.994486,-1.78107 2.402344,-2.35938 1.631429,-2.31324 1.300679,-2.52874 1.484375,-3.11328 0.734783,-2.33816 1.336576,-5.1359 3.113281,-12.41797 4.855066,-19.89912 7.167383,-26.91807 14.416016,-43.65625 3.99965,0.97246 13.118721,3.19871 24.472656,5.97852 2.029692,0.49693 3.492695,0.85468 5.132812,1.25586 -6.113595,18.86328 -7.165621,39.41929 -2.3125,58.16015 0.670084,2.5876 1.298576,4.79457 2.580078,7.41602 2.515436,5.1456 6.398926,8.47545 11.681636,12.50195 4.12381,3.14319 5.84991,5.04438 6.44532,6.06445 0.36467,0.62478 0.5737,1.42518 0.71094,2.57422 -0.87952,0.51167 -1.76043,1.04558 -2.63868,1.82032 -2.15577,1.90169 -3.54509,4.41953 -4.35351,6.36718 -1.80721,4.35389 -2.71954,9.02571 -2.73047,13.76368 -0.004,1.81543 0.002,3.47614 0.54492,5.63086 0.54242,2.15471 2.0496,4.69998 3.46094,6.11132 0.47249,0.47249 2.36949,1.96053 4.00586,2.53516 1.63637,0.57463 2.68502,0.62473 3.6582,0.69141 1.94636,0.13334 4.05838,0.11233 8.28906,0.11132 9.48026,-0.002 24.84457,-0.38865 39.16602,-0.97656 3.20909,-0.13174 5.41699,-0.24341 7.15625,-0.39648 0.86963,-0.0765 1.61071,-0.15531 2.48633,-0.31641 0.87561,-0.1611 1.79014,-0.0722 4.08008,-1.54883 4.6262,-2.98323 5.12977,-6.03566 5.84179,-8.84961 0.71202,-2.81394 1.03592,-5.64963 0.0645,-9.24023 -1.00191,-3.70318 -2.55679,-5.25892 -4.1875,-7.00977 -1.6307,-1.75084 -3.46662,-3.29471 -5.70312,-4.61914 -4.56479,-2.70323 -10.28785,-4.45375 -16.39648,-5.85156 7.73805,-3.91096 11.80007,-6.31752 18.0996,-10.81055 5.10667,-3.64222 8.83354,-6.56857 11.85352,-10.20117 3.01998,-3.6326 4.88214,-7.95005 5.91211,-12.14453 0.75536,-3.07643 1.02475,-5.92118 1.01758,-11.01367 -0.009,-6.36817 -0.66257,-10.85682 -2.33985,-17.1875 0.7893,0.19306 2.39274,0.58577 3,0.73437 2.72769,0.66751 5.21602,1.26282 7.07032,1.69141 0.92715,0.2143 1.6864,0.38435 2.29297,0.51367 0.30328,0.0647 0.55251,0.11833 0.86914,0.17578 0.15831,0.0287 0.30804,0.0583 0.67382,0.10352 0.1829,0.0226 0.3863,0.0568 0.95313,0.0703 0.28342,0.007 0.63401,0.0284 1.41992,-0.0742 0.39296,-0.0513 0.8976,-0.12321 1.70899,-0.39258 0.40569,-0.13468 1.49377,-0.64823 1.49414,-0.64843 3.6e-4,-2e-4 2.11109,-1.57594 2.11132,-1.57618 4.3e-4,-4.2e-4 0.84759,-0.95902 1.08204,-1.30078 0.23444,-0.34176 0.3857,-0.60789 0.50585,-0.83007 0.24032,-0.44438 0.35579,-0.72302 0.44532,-0.94532 0.17906,-0.44459 0.23836,-0.66064 0.29101,-0.83789 0.10531,-0.3545 0.138,-0.5069 0.16993,-0.64648 0.0638,-0.27916 0.0933,-0.4389 0.12695,-0.61719 0.0674,-0.35657 0.13003,-0.72172 0.20117,-1.14844 0.14227,-0.85344 0.30878,-1.91475 0.4707,-2.98047 0.16193,-1.06571 0.31685,-2.1231 0.4336,-2.97461 0.0584,-0.42575 0.10711,-0.78935 0.14843,-1.15039 0.0207,-0.18051 0.0402,-0.34047 0.0625,-0.64453 0.0112,-0.15203 0.0274,-0.31206 0.0274,-0.74804 -1e-5,-0.21799 0.0102,-0.47698 -0.0664,-1.11524 -0.0383,-0.31913 -0.0841,-0.72634 -0.30078,-1.47266 -0.10834,-0.37315 -0.56613,-1.47014 -0.56641,-1.4707 -2.7e-4,-5.6e-4 -1.75749,-2.46453 -1.75781,-2.46484 -0.007,-0.005 -1.70489,-1.34364 -1.70508,-1.34375 -1.8e-4,-1.2e-4 -0.59743,-0.33859 -0.78515,-0.42969 -0.37544,-0.1822 -0.56275,-0.25275 -0.71289,-0.31055 -0.30029,-0.11559 -0.42065,-0.14951 -0.52149,-0.18164 -0.20166,-0.0642 -0.2728,-0.0842 -0.34179,-0.10351 -0.138,-0.0386 -0.20845,-0.0558 -0.28711,-0.0762 -0.15733,-0.0407 -0.31543,-0.0804 -0.51172,-0.12891 -0.39258,-0.097 -0.91989,-0.22515 -1.56641,-0.38086 -1.29303,-0.31142 -3.05145,-0.72969 -4.98242,-1.18555 -8.3972,-1.98238 -17.70993,-4.32565 -27.03516,-6.60351 -3.8875,-5.246683 -8.53547,-10.904767 -13.87304,-16.853518 4.01306,-3.465206 7.3005,-7.596791 9.29297,-12.453125 1.5895,-3.874171 2.35951,-7.727948 2.63281,-13.076172 0.26817,-5.247857 -0.80141,-1.920821 1.37695,-5.279297 h -0.002 c 1.13602,-1.751444 1.82874,-2.441281 2.78906,-5.646484 0.97639,-3.25894 0.66836,-5.398145 0.26367,-7.626953 -0.40469,-2.228808 -0.96536,-4.336813 -2.71484,-6.861329 -3.42647,-4.944386 -6.84459,-8.273521 -11.25,-11.662109 -5.36541,-4.127016 -12.25059,-6.666088 -21.13281,-9.173828 -3.06604,-0.865641 -5.40905,-1.46696 -7.83008,-1.796875 -1.213,-0.165297 -2.44467,-0.231643 -3.63672,-0.216797 z M 80.109375,60.412109 c -0.796936,5.144406 -1.128205,9.870915 -1.324219,16.84961 -1.091788,-0.27885 -1.986475,-0.508758 -3.029297,-0.775391 -0.145988,-0.03733 -0.230636,-0.05878 -0.375,-0.0957 1.046906,-4.011092 2.321928,-8.691716 3.390625,-12.21875 0.436996,-1.442223 0.924943,-2.52895 1.337891,-3.759766 z M 110.1582,84.214844 c 0.0491,0.02599 0.0953,0.06212 0.14453,0.08789 -0.1646,0.165673 -0.24632,0.304496 -0.39843,0.464844 0.0826,-0.178389 0.17071,-0.371725 0.2539,-0.552734 z M 120.2207,194.875 c -1.19312,0.46818 -2.41005,1.03001 -3.63086,1.72266 v -0.29493 z"
		/>
		<path class="primary"
			d="m 40.81927,156.07083 c -0.645279,-2.91818 -2.2752,-12.00383 -3.073964,-17.13516 -2.61822,-16.81965 -2.777587,-23.61731 -0.824801,-35.18109 0.77534,-4.59133 2.752473,-14.312831 3.368042,-16.560578 0.161663,-0.590306 -0.13185,-0.741881 -3.034764,-1.567188 -2.882972,-0.819639 -3.197791,-0.980993 -3.05881,-1.567712 0.08521,-0.359722 0.4712,-2.296157 0.857757,-4.303191 0.386557,-2.007036 0.809253,-3.768735 0.939325,-3.914886 0.130072,-0.146153 1.621362,0.111546 3.313978,0.572667 1.692619,0.461118 3.218881,0.791265 3.391694,0.733663 0.172815,-0.0576 0.86011,-1.551472 1.52732,-3.319706 3.536164,-9.371486 8.601279,-20.026582 11.924702,-25.085092 3.089055,-4.701781 9.180676,-10.262611 18.14127,-16.560539 3.534235,-2.484025 12.552031,-8.290268 12.678841,-8.163459 0.04325,0.04325 -2.673673,5.569298 -6.037612,12.280098 -6.618988,13.204365 -8.487836,17.595049 -10.955303,25.73846 -2.450909,8.088755 -5.840335,21.25159 -5.542518,21.524362 0.262702,0.24061 21.821897,5.799704 54.685503,14.100797 25.80059,6.517034 57.5998,14.284014 83.93055,20.500104 3.83955,0.90643 7.00035,1.66744 7.024,1.69114 0.0802,0.0803 -1.16046,8.24731 -1.26937,8.35621 -0.0595,0.0595 -4.52005,-0.97151 -9.91237,-2.29109 -5.39233,-1.31959 -17.37227,-4.24944 -26.62208,-6.51078 -20.62627,-5.0426 -47.10773,-11.52232 -77.901521,-19.06163 C 81.541568,97.205624 69.08952,94.163661 66.697919,93.586306 l -4.348363,-1.049731 -1.477497,3.36719 C 52.065937,115.97276 49.642624,123.14754 44.366578,144.7721 c -3.562419,14.60105 -3.125097,13.20811 -3.547308,11.29873 z m 76.38409,68.36931 c -1.03418,-1.03418 -1.3215,-2.17617 -1.31411,-5.22307 0.008,-3.46806 0.73537,-7.144 2.02932,-10.26136 1.12135,-2.70156 2.17358,-3.63048 5.66323,-4.9996 l 2.20181,-0.86385 -0.003,-3.04372 c -0.007,-8.48901 -2.03147,-11.95833 -10.94492,-18.75221 -4.77406,-3.63881 -7.76098,-6.70282 -8.995,-9.22714 -0.54752,-1.12001 -1.42072,-3.6785 -1.94046,-5.68553 -5.951586,-22.9827 -2.13704,-49.97924 10.05541,-71.164938 0.78044,-1.356101 2.08308,-3.130936 2.89476,-3.944075 1.86362,-1.866969 5.61957,-4.325144 9.80538,-6.417355 1.78887,-0.894143 3.2525,-1.817904 3.2525,-2.052801 0,-0.638911 -3.27096,-1.935843 -8.49474,-3.368149 -4.98376,-1.366499 -7.38445,-2.524143 -11.27207,-5.435555 -1.16452,-0.872101 -2.36553,-2.005835 -2.6689,-2.519405 -0.30338,-0.513572 -0.67343,-0.893154 -0.82234,-0.843515 -0.14891,0.04964 -1.30853,2.442787 -2.57694,5.318109 -2.72019,6.166347 -5.598353,11.957817 -6.934705,13.954104 -3.054958,4.563596 -6.929329,6.629378 -8.843454,4.715253 -0.675214,-0.675563 -0.677817,-0.737942 -0.492828,-11.820088 0.190071,-11.386646 0.415205,-14.610808 1.486976,-21.295106 1.213065,-7.565501 3.359124,-13.067408 6.962114,-17.848934 7.385617,-9.801445 24.852527,-20.715958 35.745237,-22.336046 2.98958,-0.444646 5.18358,-0.145669 11.01702,1.501299 8.29337,2.341486 14.67823,5.038067 18.02586,7.613027 2.02122,1.554696 7.99488,7.729263 9.30054,9.613324 1.14072,1.646068 1.72478,4.866029 1.20022,6.61688 -0.20508,0.68448 -0.96777,2.161699 -1.69488,3.282712 -2.34997,3.623061 -2.56464,4.363863 -2.84298,9.810692 -0.25906,5.069681 -0.57295,6.682573 -1.95708,10.056174 -2.17379,5.298287 -6.62348,9.911154 -12.64292,13.106538 l -2.09834,1.113895 4.2636,4.601107 c 11.65276,12.575193 20.74312,24.459473 24.63592,32.207753 1.85147,3.68521 3.97372,9.42052 5.40542,14.60799 1.85245,6.71194 2.24136,9.45214 2.25024,15.85452 0.007,4.97047 -0.0908,6.11354 -0.75237,8.80797 -1.66533,6.78197 -4.41985,10.09571 -14.17623,17.05425 -6.30628,4.49784 -9.4231,6.35186 -17.50822,10.41463 l -6.742,3.38787 -0.001,5.79105 c -5.2e-4,3.18507 0.1233,5.79104 0.27522,5.79104 0.15191,0 1.97253,0.29094 4.0458,0.64653 7.57412,1.29904 14.79348,3.60161 18.88018,6.02172 2.64216,1.56466 5.21642,4.32839 5.70144,6.12108 0.72846,2.69245 -0.33099,6.88153 -2.01504,7.9675 -0.53313,0.34379 -2.80365,0.54373 -9.1188,0.80298 -14.21551,0.58356 -29.56482,0.96668 -38.7921,0.96825 -8.44099,0.002 -8.83237,-0.0253 -9.45287,-0.6458 z"
		/>
	</g>
</svg>
