<?xml version="1.0" encoding="UTF-8" standalone="no"?>
<svg xmlns="http://www.w3.org/2000/svg" width="228.83548mm" height="223.3913mm" viewBox="0 0 228.83548 223.3913" version="1.1">
	<style type="text/css">
		.primary { fill: grey; }
		.secondary { fill: #fff; }
	</style>
	<g>
		<path class="secondary"
			d="m 202.32227,60.857422 c -1.41018,0.03311 -2.85604,0.195099 -4.3086,0.529297 -3.03989,0.699404 -6.09432,2.265743 -8.25781,5.43164 -3.05708,4.473548 -3.70474,9.643141 -3.16797,14.324219 0.5176,4.514107 2.65436,6.346019 2.66406,6.371094 0.97637,2.522944 1.75755,4.560628 1.96875,6.126953 0.4083,3.027989 1.08857,5.80833 1.25,7.837895 0.16144,2.02956 -0.14878,2.6073 -0.24414,2.71093 -0.46822,0.50885 -1.52286,1.01441 -3.51172,1.05469 -1.98885,0.0403 -4.56296,-0.49429 -6.52734,-1.23828 -0.59158,-0.22405 -2.29644,-1.96529 -3.91211,-4.566407 -0.64404,-1.036852 -1.18284,-2.996369 -1.78516,-5.662109 -0.60231,-2.665741 -1.2823,-6.080497 -3.63476,-9.410156 -0.79422,-1.124127 -1.84551,-2.65796 -3.45313,-4.167969 -1.60762,-1.51001 -4.11239,-3.240768 -7.49023,-3.232422 a 5.8454207,5.8454207 0 0 0 -0.002,0 c -3.31864,0.0084 -5.69389,1.794714 -7.11719,3.185547 -1.4233,1.390833 -2.31318,2.694997 -2.90235,3.43164 -2.61826,3.273706 -3.54601,6.68559 -4.42968,9.251954 -0.82411,2.393368 -1.54994,3.78301 -2.2168,4.539062 -0.38767,-0.453786 -0.92456,-1.544407 -1.5332,-3.568359 -0.63168,-2.100533 -1.27224,-4.992745 -3.31446,-7.976563 -0.53938,-0.78808 -1.39432,-2.398209 -2.80273,-4.160156 -1.40841,-1.761948 -3.963,-4.202715 -7.79687,-4.320313 -3.81981,-0.117155 -6.57958,2.072751 -8.20313,3.822266 -1.62355,1.749515 -2.64653,3.471584 -3.38086,4.556641 -2.08856,3.086132 -2.74273,6.168179 -3.32227,8.558593 -0.57953,2.390415 -1.09197,4.11034 -1.65234,5.003907 -0.80517,1.283944 -2.95819,2.929554 -5.82422,5.041014 -2.86603,2.11146 -6.67545,4.96225 -8.291013,10.07813 -2.934622,9.29278 -0.796112,19.48482 4.337893,27.21093 2.84248,4.27762 6.61717,7.34411 10.63867,9.875 -0.18086,0.0542 -0.36922,0.0755 -0.54883,0.13477 -10.5653,3.48631 -17.019919,13.94192 -17.716796,24.33984 -0.46674,6.9642 2.673427,13.78403 9.298826,17.22266 4.8821,2.53383 9.57294,0.91139 12.58399,-0.12891 3.01104,-1.04029 5.06028,-1.51059 5.48632,-1.4375 0.56148,0.0963 1.96832,0.8911 4.08399,2.42969 2.11567,1.53859 5.03949,3.86463 9.46875,4.27539 12.66378,1.17439 23.91518,-4.72089 33.3125,-9.42187 6.28429,-3.1437 13.54691,-7.07388 18.49219,-14.08008 2.38688,-3.3816 2.82385,-6.82851 3.24218,-9.35156 0.41834,-2.52305 0.83532,-4.17079 1.27344,-4.86133 0.0311,-0.049 0.60349,-0.61998 1.93164,-1.55469 1.32816,-0.93471 3.4136,-2.23412 5.07617,-4.86914 1.43837,-2.27964 1.73316,-4.35949 1.98243,-5.70313 0.24926,-1.34363 0.46771,-1.99254 0.45898,-1.97656 0.63308,-1.15966 2.01663,-2.58441 3.93359,-4.40625 1.91697,-1.82184 4.38009,-4.05939 6.11524,-7.5332 4.07916,-8.16657 5.7149,-17.22202 5.96289,-25.88086 0.17051,-5.95362 -2.41226,-10.454201 -3.77149,-13.97461 -0.66141,-1.713076 -1.04913,-3.111406 -1.14648,-3.972656 0.29,0.02787 0.28337,0.0092 0.64258,0.05664 1.21401,0.160359 2.74857,0.434509 4.76172,0.28711 2.01315,-0.1474 4.95842,-1.047466 6.86133,-3.417969 2.11943,-2.640254 2.48619,-5.636447 2.33984,-8.111328 -0.14636,-2.474882 -0.80519,-4.664178 -1.80273,-6.642578 -2.96908,-5.888571 -8.49351,-8.177071 -12.40235,-9.744141 -3.48559,-1.397403 -7.4512,-2.416101 -11.69726,-2.316406 z m -63.00391,98.763668 c 1.98328,-0.1168 2.52439,0.12563 2.39648,0.0371 1.58116,1.09429 3.47727,3.06327 4.53125,4.88868 1.05399,1.8254 1.14576,3.14938 0.9668,3.70703 -0.27062,0.84328 -1.30623,1.98762 -3.5625,2.97851 -2.25627,0.99089 -5.38437,1.57344 -7.80859,1.61914 0.29585,-0.006 -0.35008,-0.10887 -1.9961,-1.27539 -0.66568,-0.47176 -1.5781,-1.12455 -2.55468,-1.74219 1.17197,-0.3095 2.64828,-0.938 3.87695,-2.26953 1.25258,-1.35743 1.91615,-3.28469 2.00586,-4.84961 0.0579,-1.0102 -0.11554,-1.99142 -0.38086,-2.94336 0.90198,-0.0515 1.84949,-0.11058 2.52539,-0.15039 z"
		/>
		<path class="primary"
			d="m 167.45316,183.68418 c -9.37465,4.68965 -19.73291,9.79508 -30.15851,8.82825 -4.8706,-0.45169 -8.28072,-5.81881 -13.10235,-6.64605 -5.42323,-0.93043 -11.4779,4.67637 -16.36708,2.13886 -3.88426,-2.01596 -6.45341,-7.25776 -6.1594,-11.64466 0.52664,-7.85787 6.27717,-16.72487 13.71617,-19.17957 5.31236,-1.75294 16.27827,-0.41568 15.9564,5.19921 -0.24307,4.24032 -9.05154,-0.0553 -12.41893,2.50693 -3.27149,2.48926 -8.08374,7.72189 -5.61354,11.01616 2.39389,3.19251 7.75198,-2.80786 11.69863,-2.32945 3.9952,0.48428 6.92333,5.1964 10.94673,5.12055 6.29837,-0.11874 14.89054,-2.62555 16.82582,-8.65617 1.73718,-5.41333 -3.07765,-11.9632 -7.7363,-15.18736 -3.45719,-2.39267 -8.54798,0.01 -12.51571,-1.36466 -8.97461,-3.10855 -18.92256,-7.16199 -24.19743,-15.10009 -4.1461,-6.23943 -5.8895,-15.06424 -3.63067,-22.21706 1.93996,-6.14312 10.05081,-8.2833 13.493,-13.7723 2.50684,-3.997445 2.22109,-9.49042 4.86235,-13.393233 1.65375,-2.443609 3.69109,-5.900279 6.56417,-5.81216 2.74995,0.08435 4.36155,3.608384 5.95637,5.938511 2.53297,3.700845 2.41783,9.132451 5.47013,12.382432 1.09597,1.16693 2.6603,2.11364 4.22888,2.14799 1.41497,0.031 2.85717,-0.76303 3.88988,-1.76894 3.86137,-3.76109 3.91064,-10.427014 7.29352,-14.656751 1.4767,-1.846352 3.16017,-4.416417 5.47014,-4.422298 2.5903,-0.0064 4.62406,2.757578 6.1573,4.9277 2.98962,4.231498 2.48739,10.372535 5.22701,14.783099 1.72511,2.77731 3.81901,5.81757 6.80729,6.94933 5.15508,1.95243 12.61805,2.79585 16.4104,-1.32547 3.39071,-3.68484 1.16713,-10.23892 0.48624,-15.288508 -0.3486,-2.585308 -1.37233,-5.032754 -2.30962,-7.454726 -0.65599,-1.695133 -2.10157,-3.113425 -2.3096,-4.927705 -0.4026,-3.510988 0.21814,-7.478184 2.18804,-10.360816 1.07452,-1.572373 2.92914,-2.615612 4.7408,-3.032431 4.10244,-0.943872 8.60029,-0.05544 12.52053,1.516217 3.57732,1.434162 7.58018,3.41938 9.36001,6.949322 1.26038,2.499667 1.86103,6.298625 0.12156,8.465541 -2.68438,3.344016 -9.97765,-1.406395 -12.39898,2.147976 -4.20764,6.176554 3.98498,14.79934 3.76832,22.3642 -0.22985,8.02553 -1.77108,16.27473 -5.34857,23.43694 -2.29653,4.5977 -7.48873,7.24056 -9.9509,11.75068 -1.22848,2.25027 -0.88643,5.19298 -2.25406,7.36052 -1.69126,2.68047 -5.30336,3.73557 -7.00131,6.41177 -2.61041,4.11435 -1.54611,9.99232 -4.35519,13.97206 -3.92868,5.56594 -10.25549,9.18663 -16.33154,12.22616 z"
		/>
	</g>
	<g>
		<path class="secondary"
			d="m 110.07812,0.81445312 c -1.81951,0.0275242 -3.50758,0.12090766 -5.74218,1.10937498 -2.45379,1.0854268 -4.353079,2.6818512 -5.857424,4.6113281 -1.504346,1.929477 -2.782042,4.2270968 -2.78125,7.4667968 5.46e-4,2.671056 0.691778,3.903235 1.392578,5.433594 0.700217,1.529086 1.581607,3.039687 2.638672,4.521484 l -0.357422,-0.498047 -2.265625,15.283204 c -0.730522,4.925152 -1.410041,9.465939 -1.914063,12.808593 -0.180452,1.196751 -0.305765,2.020585 -0.435547,2.871094 -1.198256,0.830287 -2.333106,1.832938 -3.111328,3.109375 -1.312546,2.152833 -1.685531,4.265215 -1.896484,6.324219 l 0.05859,-0.574219 -5.074219,5.322266 c -0.75094,0.787634 -1.271243,1.312696 -1.953125,2.019531 -0.29634,-0.344839 -0.479929,-0.538499 -0.791016,-0.904297 -2.922477,-3.436454 -6.429703,-7.7228 -8.728515,-10.728516 -2.036154,-2.662291 -3.568032,-4.535806 -5.673828,-6.130859 3.637481,-5.217925 6.585192,-10.357736 8.357421,-15.587891 1.152063,-3.399941 1.604269,-5.770315 1.617188,-8.171875 0.01237,-2.299029 -0.66333,-5.331707 -1.511719,-6.947265 C 74.004932,18.26021 71.3165,15.94505 67.800781,13.890625 61.506991,10.212827 53.393715,8.2906355 45.683594,8.2988281 c -5.91043,0.00631 -11.187481,1.3571911 -15.564453,4.3339839 -7.712666,5.245405 -11.749791,14.556918 -11.75,24.105469 -5.1e-5,2.292998 0.394125,4.64113 1.167968,7.015625 0.986094,3.025771 2.71644,6.548364 4.490235,9.714844 -1.474275,1.508901 -2.832945,3.105768 -3.941406,5.275391 -2.293301,4.488737 -3.825212,10.381656 -4.78125,16.640625 -0.89337,5.84869 -1.20441,15.770901 -0.544922,21.507812 0.631447,5.492982 2.339123,12.662942 4.675781,20.228512 l 0.417969,1.35743 -0.558594,2.54492 c -2.008367,9.11513 -2.944825,16.68258 -1.671875,22.96484 1.098934,5.42348 4.152238,10.3202 8.414062,14.58203 3.960936,3.96094 8.308747,7.00351 16.66211,11.88281 5.721079,3.34175 8.556568,4.34095 14.148437,5.1211 0.901833,0.12582 1.469573,0.25178 2.142578,0.38476 -0.382006,0.75728 -0.665364,1.34898 -1.605468,3.04883 -0.790272,1.42894 -1.419461,3.35168 -1.779297,5.38477 -0.733606,-0.5283 -1.519346,-0.97981 -2.402344,-1.34766 -2.181561,-0.90882 -5.51986,-1.1026 -8.001953,-0.13867 -1.30067,0.50512 -2.367817,1.1543 -3.34961,1.88867 0.13616,-1.39016 0.173945,-2.74035 -0.06055,-4.26562 -0.423673,-2.75583 -1.751074,-4.86322 -2.97461,-6.72657 -2.419921,-3.68534 -5.039134,-6.79007 -8.115234,-9.09375 -3.138907,-2.3507 -6.945498,-3.97771 -11.00586,-3.76367 -4.060361,0.21405 -7.671282,2.23043 -10.5488276,4.89453 -3.4583062,3.20178 -5.9130491,7.12996 -7.3300782,11.27149 -1.41702896,4.14153 -1.9939047,8.66459 -0.029297,13.16211 0.4964621,1.13654 1.0575111,2.40493 2.4472656,3.80859 1.3897545,1.40366 4.0252957,2.56796 6.15625,2.55469 4.258593,-0.0265 6.019744,-1.7104 8.794922,-3.46289 0.114449,1.13573 0.230319,2.96676 0.314453,7.07812 0.0495,2.41878 0.125478,4.70318 0.210938,6.49024 0.04273,0.89352 0.08639,1.65624 0.136718,2.30078 0.02516,0.32227 0.05171,0.6102 0.08984,0.92773 0.03814,0.31754 -0.10125,0.30928 0.363281,1.67578 1.458844,4.2915 4.736689,8.29817 9.591797,9.4629 2.151867,0.51622 4.929372,0.42091 7.294922,-0.26563 2.36555,-0.68654 4.628703,-1.74713 7.773438,-3.31641 3.696831,-1.84479 4.00232,-1.86882 5.199218,-1.86132 1.222818,0.008 2.102758,0.20346 7.810547,3.04687 3.123194,1.55585 5.175646,2.55029 7.273438,3.25586 2.097791,0.70557 4.433623,0.94841 6.216797,0.84766 2.406846,-0.136 4.993414,-1.29353 7.142578,-2.92774 a 6.615245,6.615245 0 0 0 5.691406,3.24805 h 2.402344 c 0.969424,0 1.73072,-0.006 2.716796,-0.13477 0.493039,-0.0644 1.03178,-0.12296 1.972657,-0.48242 0.940877,-0.35946 2.965199,-1.13687 4.037109,-4.03125 2.63e-4,-7.1e-4 0.217638,-0.69992 0.246094,-0.82422 0.02846,-0.12429 0.04063,-0.189 0.05078,-0.24218 0.0203,-0.10638 0.0281,-0.15589 0.03516,-0.19922 0.01411,-0.0867 0.02151,-0.13589 0.0293,-0.18946 0.01557,-0.10712 0.03029,-0.21462 0.04883,-0.35156 0.03708,-0.27387 0.08527,-0.64911 0.148438,-1.13476 0.126342,-0.97132 0.307627,-2.37849 0.537109,-4.18165 0.458965,-3.6063 1.113207,-8.79173 1.916016,-15.17773 1.605613,-12.77201 3.803593,-30.33942 6.205073,-49.62305 4.18525,-33.607 6.37569,-51.151945 7.58204,-60.281247 0.56481,-4.274356 0.88834,-6.449452 1.09765,-7.677734 2.65754,-2.743957 4.60998,-6.220667 5.40235,-9.925781 0.50379,-2.355682 0.53312,-5.167251 0.0801,-7.304688 -0.39043,-1.842081 -2.08213,-4.70308 -3.48437,-6.082031 -0.96288,-0.946885 -1.1138,-1.358004 -3.10352,-2.613281 l 2.92188,1.835937 1.69922,-13.53125 1.96094,-15.607422 0.38867,-0.419922 0.002,-0.002 c 1.44865,-1.568497 2.47776,-2.610755 3.63867,-5.146484 0.83991,-1.834602 1.16219,-3.472935 1.33203,-5.171875 0.16984,-1.698941 0.29713,-3.26724 -0.4707,-5.5937502 -0.81825,-2.4793177 -2.08602,-3.7075315 -3.39648,-4.828125 C 118.98055,3.0942502 117.53089,2.2027792 115.69727,1.59375 113.65992,0.91705396 111.89139,0.78702352 110.07812,0.81445312 Z M 97.222656,53.013672 c -0.464595,0.177431 -0.955805,0.552145 -1.443359,0.824219 0.710823,-0.745564 1.375353,-0.798247 1.443359,-0.824219 z M 73.349609,107.32617 c 0.289473,0.0976 0.46661,0.15114 0.763672,0.25195 2.273127,0.77144 4.36025,1.46373 5.925781,1.96876 0.782766,0.25251 1.428938,0.45594 1.945313,0.61132 0.258187,0.0777 0.473246,0.14247 0.732422,0.21094 0.129588,0.0342 0.255225,0.0695 0.519531,0.12305 0.132153,0.0268 0.284531,0.0596 0.628906,0.0977 0.172188,0.019 0.388475,0.0432 0.777344,0.041 0.194435,-0.001 0.434418,-0.007 0.773438,-0.0488 0.339019,-0.0416 1.434671,-0.34148 1.435546,-0.3418 6.73e-4,-2.4e-4 1.547994,-0.78986 1.830079,-1.00976 0.282084,-0.2199 0.424211,-0.35756 0.537109,-0.4668 0.225797,-0.21848 0.314888,-0.32359 0.390625,-0.41015 0.151474,-0.17314 0.208173,-0.24759 0.263672,-0.31836 0.109133,-0.13916 0.173543,-0.22683 0.248047,-0.32813 -1.211814,10.8044 -2.642698,23.50376 -4.169922,36.97461 -1.045113,-1.11889 -1.73574,-2.09815 -3.097656,-3.37109 -1.762496,-1.64735 -4.215253,-4.28592 -4.257813,-4.33985 -1.249479,-1.58324 -3.649018,-6.33115 -6.285156,-14.06054 l -0.78125,-2.29102 1.318359,-9.69531 c 0.189806,-1.39738 0.329072,-2.35782 0.501953,-3.59766 z"
		/>
		<path class="primary"
			d="m 84.442216,215.66196 c 0.459838,-2.69995 15.223667,-132.842585 15.085767,-132.980486 -0.0917,-0.09167 -0.269037,0.01093 -0.394147,0.227989 -0.668677,1.160225 -14.348722,21.043577 -14.520892,21.105487 -0.112117,0.0403 -3.880755,-1.17452 -8.37475,-2.69966 -4.493996,-1.525117 -8.226354,-2.717488 -8.294132,-2.64971 -0.06778,0.06778 -0.810498,5.18301 -1.650489,11.36717 l -1.52726,11.24393 1.285057,3.7679 c 2.732741,8.01264 5.097886,13.16772 7.351451,16.02326 0.767212,0.97216 2.987241,3.25584 4.933394,5.07485 5.712418,5.33922 6.995636,7.06923 8.347816,11.25439 1.371655,4.24544 1.71985,6.65399 1.71985,11.89665 0,3.46733 -0.126622,5.41008 -0.465611,7.14375 -0.985221,5.03863 -1.80457,6.65453 -5.835896,11.50937 -3.126825,3.76557 -4.309565,5.61681 -4.97381,7.78505 -0.524089,1.71074 -0.545737,2.12202 -0.327276,6.21771 0.418187,7.8401 0.349615,9.19475 -0.557353,11.01067 -1.066011,2.13437 -2.610157,3.10835 -5.156007,3.2522 -2.520193,0.1424 -4.049553,-0.37199 -10.168022,-3.41997 -5.888802,-2.93358 -8.156429,-3.72503 -10.718744,-3.74107 -2.332728,-0.0146 -4.216725,0.57355 -8.192733,2.55765 -6.057638,3.02287 -8.186915,3.64085 -10.572649,3.06852 -2.173566,-0.52143 -3.928399,-2.37928 -4.873564,-5.15968 -0.149815,-0.44071 -0.351573,-4.67082 -0.448355,-9.40024 -0.19448,-9.50361 -0.326851,-10.3605 -1.929409,-12.48989 -0.482893,-0.64164 -1.395987,-1.40496 -2.097852,-1.75374 -1.201619,-0.59712 -1.289212,-0.60405 -2.643887,-0.20895 -0.770602,0.22475 -2.472656,1.08497 -3.782344,1.9116 -5.149639,3.25027 -6.4117414,3.25821 -7.8135355,0.0491 -1.9721857,-4.51486 0.6460094,-12.16805 5.7929305,-16.93319 4.282542,-3.96488 8.429728,-4.18267 13.096497,-0.68776 2.130423,1.59546 4.440952,4.21562 6.550613,7.42846 2.325137,3.54099 2.403112,4.04794 1.545296,10.04685 -0.742754,5.19425 -0.344541,7.00498 1.760175,8.00373 1.80468,0.85638 3.236571,0.12837 7.256338,-3.68932 3.009265,-2.85798 4.711716,-3.51889 6.81133,-2.64421 1.451798,0.6048 2.739035,1.97043 5.479341,5.81305 1.351102,1.8946 3.003005,3.94843 3.670892,4.56406 1.062615,0.97949 1.367147,1.11934 2.437337,1.11934 1.046384,0 1.357561,-0.13456 2.154859,-0.93186 0.875138,-0.87514 0.924631,-1.01607 0.813054,-2.31511 -0.06534,-0.76078 -0.568314,-2.4548 -1.117711,-3.76449 -2.77994,-6.62701 -2.881712,-7.88624 -0.923539,-11.42692 2.760255,-4.99097 3.153884,-5.90499 3.152476,-7.32012 -0.0024,-2.35831 -1.634252,-4.2695 -4.328856,-5.06971 -0.711827,-0.21139 -2.618343,-0.56908 -4.236698,-0.79486 -5.49038,-0.76599 -6.068031,-0.97691 -11.725193,-4.28132 -8.19717,-4.78807 -11.834302,-7.36391 -15.320473,-10.85008 -3.569137,-3.56914 -5.841874,-7.42617 -6.610224,-11.21814 -0.854725,-4.21824 -0.253385,-11.60021 1.647831,-20.22855 l 0.936493,-4.25011 -0.934567,-3.02593 C 23.505679,107.88671 21.876991,100.87831 21.331883,96.136396 20.86544,92.078791 21.155457,80.890805 21.84392,76.383594 c 0.87215,-5.709772 2.475356,-11.384248 4.133148,-14.629088 0.716056,-1.401558 2.847155,-3.913917 4.830697,-5.69492 0.763984,-0.685975 1.389062,-1.352945 1.389062,-1.482154 0,-0.129209 -0.440343,-0.921848 -0.97854,-1.761418 -1.740339,-2.714871 -4.526341,-8.456332 -5.391409,-11.110743 -0.693553,-2.128129 -0.842953,-3.008641 -0.84291,-4.967833 1.6e-4,-7.281793 3.743611,-15.159816 8.855639,-18.636519 3.341266,-2.272406 6.719051,-3.18047 11.85097,-3.185947 6.399543,-0.0068 13.979858,1.885272 18.772153,4.685667 2.225556,1.300513 4.770805,3.800002 5.730449,5.627425 0.682516,1.299693 0.762815,1.709686 0.751374,3.836458 -0.01143,2.124728 -0.147936,2.780032 -1.267163,6.083069 -1.891525,5.582216 -5.053931,11.189385 -9.732436,17.256286 -1.14595,1.486022 -2.083544,2.765944 -2.083544,2.844271 0,0.07833 0.181208,0.142415 0.402686,0.142415 0.765188,0 3.704023,1.513041 5.327811,2.742991 1.102767,0.8353 2.529284,2.410777 4.413334,4.874191 4.84704,6.337543 14.13628,17.260604 14.604167,17.172792 0.150722,-0.02829 3.260376,-3.183689 6.91034,-7.012006 l 6.636297,-6.960574 0.171971,-1.678551 c 0.324247,-3.164813 1.160402,-4.535506 3.254667,-5.335315 0.744667,-0.28439 1.195167,-0.635772 1.278077,-0.996884 0.0704,-0.306728 1.32454,-8.624292 2.7869,-18.483479 l 2.65884,-17.925793 -1.19147,-1.6697 c -1.62806,-2.281513 -2.80316,-4.845814 -2.80342,-6.117573 -5.3e-4,-2.168027 2.11964,-4.887322 4.70038,-6.0289067 1.54868,-0.6850528 4.69327,-0.732622 6.59847,-0.099817 1.69428,0.5627471 3.38941,2.010781 3.79595,3.2426047 0.46725,1.415765 0.18502,4.239075 -0.59381,5.940257 -0.36114,0.788824 -1.47969,2.325431 -2.48567,3.414682 l -1.82907,1.980457 -2.2244,17.711117 -2.22439,17.711121 0.63689,0.401818 c 0.3503,0.220998 1.24731,1.002088 1.99337,1.735754 1.11096,1.092512 1.41025,1.587701 1.65364,2.736024 0.38093,1.797219 0.36949,2.450195 -0.0798,4.55104 -0.80848,3.780462 -1.81972,5.418357 -4.84958,7.854825 -0.57168,0.459722 -0.95738,3.378708 -9.32805,70.594142 -4.802447,38.56302 -8.786842,70.26341 -8.85421,70.44531 -0.08566,0.2313 -0.844513,0.33073 -2.524032,0.33073 h -2.401544 z"
		/>
	</g>
</svg>
