<?xml version="1.0" encoding="UTF-8" standalone="no"?>
<svg
   xmlns:dc="http://purl.org/dc/elements/1.1/"
   xmlns:cc="http://creativecommons.org/ns#"
   xmlns:rdf="http://www.w3.org/1999/02/22-rdf-syntax-ns#"
   xmlns:svg="http://www.w3.org/2000/svg"
   xmlns="http://www.w3.org/2000/svg"
   xmlns:sodipodi="http://sodipodi.sourceforge.net/DTD/sodipodi-0.dtd"
   xmlns:inkscape="http://www.inkscape.org/namespaces/inkscape"
   width="228.83548mm"
   height="223.3913mm"
   viewBox="0 0 228.83548 223.3913"
   version="1.1"
   id="svg2206"
   inkscape:version="1.0 (4035a4fb49, 2020-05-01)"
   sodipodi:docname="confirm.svg">
  <defs
     id="defs2200" />
  <sodipodi:namedview
     id="base"
     pagecolor="#ffffff"
     bordercolor="#666666"
     borderopacity="1.0"
     inkscape:pageopacity="0.0"
     inkscape:pageshadow="2"
     inkscape:zoom="1.23"
     inkscape:cx="418.02838"
     inkscape:cy="403.00147"
     inkscape:document-units="mm"
     inkscape:current-layer="layer4"
     inkscape:document-rotation="0"
     showgrid="true"
     inkscape:window-width="2560"
     inkscape:window-height="1418"
     inkscape:window-x="1272"
     inkscape:window-y="-8"
     inkscape:window-maximized="1">
    <inkscape:grid
       type="xygrid"
       id="grid17" />
  </sodipodi:namedview>
  <metadata
     id="metadata2203">
    <rdf:RDF>
      <cc:Work
         rdf:about="">
        <dc:format>image/svg+xml</dc:format>
        <dc:type
           rdf:resource="http://purl.org/dc/dcmitype/StillImage" />
        <dc:title />
      </cc:Work>
    </rdf:RDF>
  </metadata>
  <g
     id="layer4"
     inkscape:label="Contours"
     style="display:inline"
     inkscape:groupmode="layer">
    <path
       sodipodi:nodetypes="aaacsaaaascaaca"
       id="path832"
       d="m 51.8556,131.10785 c 11.067989,7.6198 15.001931,22.2998 22.282689,33.5937 9.589424,14.8751 15.930391,32.22629 28.183301,44.99703 5.57236,5.80786 8.85152,13.65277 19.91591,13.65276 5.53221,1e-5 16.59659,-5.4611 22.1288,-17.47553 29.18215,-63.37582 26.68128,-104.02185 53.59993,-149.667616 7.23092,-12.261428 23.68818,-18.559772 28.21538,-32.05545 2.27817,-6.791256 3.91038,-16.8513764 -1.59845,-21.4300211 -7.33938,-6.1000964 -19.87704,-1.0471022 -28.45906,3.1274112 -12.7884,6.2206049 -20.48409,16.9892989 -29.84577,30.4857739 -27.44424,39.565624 -44.57,146.226592 -44.57,146.226592 0,0 -16.60494,-49.42614 -34.015278,-67.73531 C 78.619713,105.28543 66.484351,95.908463 53.329286,95.347254 33.980304,94.521807 0.52916667,119.59035 0.52916667,119.59035 c 0,0 36.88389033,1.57448 51.32643333,11.5175 z"
       style="fill:#00ff00;fill-rule:evenodd;stroke:none;stroke-width:0.274827px;stroke-linecap:butt;stroke-linejoin:miter;stroke-opacity:1" />
  </g>
  <g
     inkscape:groupmode="layer"
     id="layer1"
     inkscape:label="Pleins"
     style="display:inline" />
</svg>
