<?xml version="1.0" encoding="UTF-8" standalone="no"?>
<svg
   xmlns:dc="http://purl.org/dc/elements/1.1/"
   xmlns:cc="http://creativecommons.org/ns#"
   xmlns:rdf="http://www.w3.org/1999/02/22-rdf-syntax-ns#"
   xmlns:svg="http://www.w3.org/2000/svg"
   xmlns="http://www.w3.org/2000/svg"
   xmlns:sodipodi="http://sodipodi.sourceforge.net/DTD/sodipodi-0.dtd"
   xmlns:inkscape="http://www.inkscape.org/namespaces/inkscape"
   sodipodi:docname="magic-light.svg"
   inkscape:version="1.0 (4035a4fb49, 2020-05-01)"
   id="svg2206"
   version="1.1"
   viewBox="0 0 228.83548 223.3913"
   height="223.3913mm"
   width="228.83548mm">
  <defs
     id="defs2200">
    <filter
       id="filter846"
       style="color-interpolation-filters:sRGB;"
       inkscape:menu-tooltip="Blur the contents of objects, preserving the outline and adding progressive transparency at edges"
       inkscape:menu="Blurs"
       inkscape:label="Evanescent">
      <feGaussianBlur
         id="feGaussianBlur840"
         in="SourceGraphic"
         stdDeviation="3"
         result="result6" />
      <feColorMatrix
         id="feColorMatrix842"
         in="SourceGraphic"
         result="result7"
         values="1 0 0 0 0 0 1 0 0 0 0 0 1 0 0 0 0 0 1 0 " />
      <feComposite
         id="feComposite844"
         in2="result7"
         in="result6"
         operator="in" />
    </filter>
    <filter
       id="filter856"
       style="color-interpolation-filters:sRGB;"
       inkscape:menu-tooltip="Overlays two copies with different blur amounts and modifiable blend and composite"
       inkscape:menu="Blurs"
       inkscape:label="Blur Double">
      <feGaussianBlur
         id="feGaussianBlur848"
         result="fbSourceGraphic"
         stdDeviation="5" />
      <feGaussianBlur
         id="feGaussianBlur850"
         result="result1"
         in="SourceGraphic"
         stdDeviation="0.01" />
      <feComposite
         id="feComposite852"
         result="result2"
         k3="0.5"
         k2="0.5"
         in="fbSourceGraphic"
         operator="arithmetic"
         in2="result1" />
      <feBlend
         id="feBlend854"
         result="result3"
         mode="normal"
         in2="fbSourceGraphic" />
    </filter>
  </defs>
  <sodipodi:namedview
     inkscape:window-maximized="1"
     inkscape:window-y="-8"
     inkscape:window-x="1272"
     inkscape:window-height="1418"
     inkscape:window-width="2560"
     showgrid="true"
     inkscape:document-rotation="0"
     inkscape:current-layer="layer1"
     inkscape:document-units="mm"
     inkscape:cy="414.29848"
     inkscape:cx="418.02838"
     inkscape:zoom="1.4088798"
     inkscape:pageshadow="2"
     inkscape:pageopacity="0.0"
     borderopacity="1.0"
     bordercolor="#666666"
     pagecolor="#ffffff"
     id="base">
    <inkscape:grid
       id="grid17"
       type="xygrid" />
  </sodipodi:namedview>
  <metadata
     id="metadata2203">
    <rdf:RDF>
      <cc:Work
         rdf:about="">
        <dc:format>image/svg+xml</dc:format>
        <dc:type
           rdf:resource="http://purl.org/dc/dcmitype/StillImage" />
        <dc:title />
      </cc:Work>
    </rdf:RDF>
  </metadata>
  <g
     style="display:inline"
     inkscape:label="Pleins"
     id="layer1"
     inkscape:groupmode="layer">
    <path
       style="display:inline;fill:#00ffff;fill-rule:evenodd;stroke:none;stroke-width:0.264583px;stroke-linecap:butt;stroke-linejoin:miter;stroke-opacity:1;filter:url(#filter856)"
       d="m 84.666667,100.54167 -71.4375,7.9375 66.145833,10.58333 -23.8125,23.8125 31.75,-10.58333 -15.874999,82.02083 42.333329,-79.375 26.45834,47.625 -7.9375,-52.91667 89.95833,29.10417 -84.66667,-50.27083 37.04167,-7.9375 -31.75,-7.937503 58.20833,-71.4375 -79.375,52.916666 -10.58333,-63.5 L 100.54167,76.729167 31.75,10.583333 84.666667,87.3125 50.270834,79.375 Z"
       id="path838"
       sodipodi:nodetypes="ccccccccccccccccccccc" />
    <path
       sodipodi:nodetypes="ccccccccccccccccccccc"
       id="path836"
       d="m 84.666667,100.54167 -71.4375,7.9375 66.145833,10.58333 -23.8125,23.8125 31.75,-10.58333 -15.874999,82.02083 42.333329,-79.375 26.45834,47.625 -7.9375,-52.91667 89.95833,29.10417 -84.66667,-50.27083 37.04167,-7.9375 -31.75,-7.937503 58.20833,-71.4375 -79.375,52.916666 -10.58333,-63.5 L 100.54167,76.729167 31.75,10.583333 84.666667,87.3125 50.270834,79.375 Z"
       style="display:inline;fill:#ff00ff;fill-rule:evenodd;stroke:none;stroke-width:0.264583px;stroke-linecap:butt;stroke-linejoin:miter;stroke-opacity:1;filter:url(#filter846)" />
  </g>
</svg>
