<?xml version="1.0" encoding="UTF-8" standalone="no"?>
<svg
   xmlns:dc="http://purl.org/dc/elements/1.1/"
   xmlns:cc="http://creativecommons.org/ns#"
   xmlns:rdf="http://www.w3.org/1999/02/22-rdf-syntax-ns#"
   xmlns:svg="http://www.w3.org/2000/svg"
   xmlns="http://www.w3.org/2000/svg"
   xmlns:xlink="http://www.w3.org/1999/xlink"
   xmlns:sodipodi="http://sodipodi.sourceforge.net/DTD/sodipodi-0.dtd"
   xmlns:inkscape="http://www.inkscape.org/namespaces/inkscape"
   width="228.83548mm"
   height="223.3913mm"
   viewBox="0 0 228.83548 223.3913"
   version="1.1"
   id="svg2206"
   inkscape:version="1.0 (4035a4fb49, 2020-05-01)"
   sodipodi:docname="playing-turn.svg">
  <defs
     id="defs2200" />
  <sodipodi:namedview
     id="base"
     pagecolor="#ffffff"
     bordercolor="#666666"
     borderopacity="1.0"
     inkscape:pageopacity="0.0"
     inkscape:pageshadow="2"
     inkscape:zoom="1.1816444"
     inkscape:cx="249.56307"
     inkscape:cy="435.73268"
     inkscape:document-units="mm"
     inkscape:current-layer="layer1"
     inkscape:document-rotation="0"
     showgrid="true"
     inkscape:window-width="2560"
     inkscape:window-height="1388"
     inkscape:window-x="2552"
     inkscape:window-y="-8"
     inkscape:window-maximized="1">
    <inkscape:grid
       type="xygrid"
       id="grid17" />
  </sodipodi:namedview>
  <metadata
     id="metadata2203">
    <rdf:RDF>
      <cc:Work
         rdf:about="">
        <dc:format>image/svg+xml</dc:format>
        <dc:type
           rdf:resource="http://purl.org/dc/dcmitype/StillImage" />
        <dc:title />
      </cc:Work>
    </rdf:RDF>
  </metadata>
  <g
     style="display:inline"
     inkscape:label="Contours"
     id="layer2"
     inkscape:groupmode="layer">
    <path
       sodipodi:open="true"
       d="M 68.791666,30.427082 A 25.135416,27.781248 0 0 1 43.720215,58.20824 25.135416,27.781248 0 0 1 18.52116,30.568478 25.135416,27.781248 0 0 1 43.464356,2.6466436 25.135416,27.781248 0 0 1 68.790364,30.144293"
       sodipodi:arc-type="arc"
       sodipodi:end="6.273006"
       sodipodi:start="0"
       sodipodi:ry="27.781248"
       sodipodi:rx="25.135416"
       sodipodi:cy="30.427082"
       sodipodi:cx="43.65625"
       sodipodi:type="arc"
       id="path847"
       style="display:none;fill:#000000;stroke-width:0.264583" />
    <path
       sodipodi:nodetypes="ccaac"
       id="path849"
       d="m 15.875,82.020833 h 55.5625 c 0,0 3.469069,-14.452149 -1.096864,-18.722052 C 57.455909,51.24943 30.35781,51.754604 17.419686,63.746602 12.936227,67.9022 15.875,82.020833 15.875,82.020833 Z"
       style="display:none;fill:#000000;fill-rule:evenodd;stroke:#000000;stroke-width:0.264583px;stroke-linecap:butt;stroke-linejoin:miter;stroke-opacity:1" />
    <path
       sodipodi:nodetypes="ccaaaaaacccccaaaaaaaaac"
       id="path860"
       d="m 50.27083,145.52083 18.520833,-7.9375 c 0,0 -4.29537,-21.10635 -3.458607,-31.70409 0.945484,-11.974726 1.820161,-25.514686 9.481517,-34.766261 8.945689,-10.80249 23.798734,-18.066388 37.819317,-18.443741 16.93416,-0.45577 35.43438,7.235061 46.81054,19.787208 8.49227,9.370146 11.31171,23.57812 11.27346,36.223944 -0.0401,13.25481 -3.10114,28.11438 -12.04582,37.89621 -7.08015,7.74279 -29.02624,12.1734 -29.02624,12.1734 v -15.875 l -21.16667,23.8125 21.16667,26.45833 v -15.875 c 0,0 22.37803,0.1819 31.9966,-4.68372 10.10922,-5.11382 18.71762,-14.09467 23.89043,-24.17384 6.26279,-12.20298 7.26628,-26.85195 6.91418,-40.56367 C 192.12207,95.194445 190.0513,81.989504 184.15256,70.788458 178.33254,59.736861 169.36814,49.733825 158.63099,43.352278 145.40078,35.489 129.28905,32.356639 113.90568,31.886147 101.63846,31.510961 88.609624,33.11869 77.748109,38.832955 66.039521,44.992867 55.631508,54.989979 49.498485,66.712674 c -7.823942,14.954728 -9.87777,33.051383 -8.668153,49.885716 0.726828,10.11531 9.440498,28.92244 9.440498,28.92244 z"
       style="display:none;fill:none;fill-rule:evenodd;stroke:#000000;stroke-width:0.264583px;stroke-linecap:butt;stroke-linejoin:miter;stroke-opacity:1" />
  </g>
  <g
     inkscape:groupmode="layer"
     id="layer1"
     inkscape:label="Pleins"
     style="display:inline">
    <path
       inkscape:label="Joueur"
       d="M 0.85897753,77.873682 C 0.03761776,72.814926 -0.03021604,67.483334 0.69223473,64.768053 1.4398009,61.958379 2.4810472,60.721182 6.2053301,58.217464 9.3504996,56.103065 13.067354,54.483574 18.014014,53.072236 18.474228,52.940934 18.349723,52.812291 16.894456,51.915475 10.583074,48.026058 6.2225404,41.662244 4.4947308,33.819166 3.9627726,31.404439 3.835717,25.770647 4.251973,23.055 6.6846534,7.18423 20.918877,-3.0843981 35.073236,0.82041373 43.169521,3.0539633 50.111949,10.219233 52.727189,19.041032 c 1.548481,5.223382 1.55826,11.985693 0.02482,17.15709 -1.924476,6.490094 -5.859372,11.849034 -11.325441,15.424132 l -1.595525,1.043556 2.52943,0.729268 c 4.822081,1.390267 8.767307,3.391567 12.209793,6.193684 2.600309,2.116601 3.335792,4.211209 3.334504,9.496409 -7.94e-4,3.017661 -0.326358,6.307193 -0.903195,9.124379 l -0.2407,1.175533 H 28.93262 1.1043743 Z m -0.01502,-0.111955 C -0.32079941,70.382347 0.05089066,64.677589 1.8721705,61.980553 2.6626357,60.809994 5.1864742,58.752761 7.5782135,57.32944 9.9378043,55.925249 12.565635,54.792248 15.894551,53.743807 l 2.626281,-0.82714 -1.743821,-1.07713 C 10.577358,48.010114 6.1932576,41.531471 4.4717274,33.655305 3.8932348,31.008643 3.8991151,24.289174 4.4822634,21.61601 6.7185561,11.364804 13.572883,3.5398433 22.610279,0.92090883 32.566108,-1.9641777 42.94935,2.1091693 49.06816,11.300337 c 1.828694,2.746911 3.065481,5.528193 3.989779,8.972206 0.671933,2.503685 0.690938,2.708266 0.686353,7.389068 -0.0046,4.658471 -0.02695,4.897326 -0.692558,7.389066 -1.858007,6.955563 -5.852408,12.746326 -11.240986,16.296278 l -2.072606,1.365416 0.970235,0.245124 c 5.59575,1.413724 9.846334,3.421184 13.595802,6.421008 2.868507,2.294991 3.600635,4.291978 3.59967,9.818624 -5.29e-4,3.147306 -0.141902,4.59817 -0.801698,8.228732 l -0.356058,1.959224 H 28.92314 1.1001865 Z"
       style="display:none;fill:#000000;stroke-width:0.223911"
       id="path853" />
    <path
       id="path856"
       style="display:none;fill:#000000;stroke-width:0.223911"
       d="m 171.7798,106.44868 c -0.82136,-5.05876 -0.88919,-10.390347 -0.16674,-13.105628 0.74756,-2.809674 1.78881,-4.046871 5.51309,-6.550588 3.14517,-2.114399 6.86203,-3.73389 11.80869,-5.145228 0.46021,-0.131302 0.33571,-0.259945 -1.11956,-1.156761 -6.31138,-3.889417 -10.67192,-10.253231 -12.39973,-18.096309 -0.53196,-2.414728 -0.65901,-8.048519 -0.24276,-10.764167 2.43269,-15.870769 16.66691,-26.139397 30.82127,-22.234585 8.09628,2.233549 15.03871,9.398819 17.65395,18.220618 1.54848,5.223382 1.55826,11.985692 0.0248,17.15709 -1.92448,6.490094 -5.85937,11.849034 -11.32544,15.424131 l -1.59553,1.043557 2.52943,0.729268 c 4.82208,1.390266 8.76731,3.391567 12.2098,6.193684 2.60031,2.116601 3.33579,4.211209 3.3345,9.496409 -7.9e-4,3.017659 -0.32636,6.307189 -0.90319,9.124379 l -0.2407,1.17553 h -27.82826 -27.82824 z m -0.015,-0.11196 c -1.16476,-7.379374 -0.79307,-13.084131 1.02821,-15.781167 0.79047,-1.170559 3.31431,-3.227792 5.70605,-4.651113 2.35959,-1.404191 4.98742,-2.537193 8.31633,-3.585633 l 2.62629,-0.827141 -1.74383,-1.077129 C 181.4982,76.585114 177.1141,70.106471 175.39257,62.230304 c -0.57849,-2.646661 -0.57261,-9.366131 0.0105,-12.039294 2.23629,-10.251206 9.09062,-18.076167 18.12801,-20.695101 9.95583,-2.885087 20.33907,1.18826 26.45788,10.379428 1.8287,2.746911 3.06548,5.528193 3.98978,8.972206 0.67194,2.503685 0.69094,2.708266 0.68636,7.389068 -0.005,4.658471 -0.027,4.897326 -0.69256,7.389066 -1.85801,6.955562 -5.85241,12.746326 -11.24099,16.296277 l -2.0726,1.365417 0.97023,0.245123 c 5.59575,1.413725 9.84633,3.421184 13.5958,6.421009 2.86851,2.294991 3.60064,4.291978 3.59967,9.818624 -5.3e-4,3.147303 -0.1419,4.598163 -0.8017,8.228733 l -0.35605,1.95922 h -27.82296 -27.82295 z"
       inkscape:label="Joueur" />
    <path
       inkscape:label="Joueur"
       d="m 49.398819,221.52871 c -0.82136,-5.05875 -0.88919,-10.39035 -0.16674,-13.10563 0.74756,-2.80967 1.78881,-4.04687 5.51309,-6.55059 3.14517,-2.11439 6.86203,-3.73389 11.80869,-5.14522 0.46021,-0.13131 0.33571,-0.25995 -1.11956,-1.15676 -6.31138,-3.88942 -10.67192,-10.25324 -12.39973,-18.09631 -0.53196,-2.41473 -0.65901,-8.04852 -0.24276,-10.76417 2.43269,-15.87077 16.66691,-26.1394 30.821252,-22.23459 8.096271,2.23355 15.038698,9.39882 17.653929,18.22062 1.54848,5.22338 1.55826,11.98569 0.0248,17.15709 -1.924474,6.4901 -5.859358,11.84904 -11.325428,15.42413 l -1.59553,1.04356 2.52943,0.72927 c 4.82208,1.39026 8.767301,3.39157 12.209788,6.19368 2.60031,2.1166 3.33579,4.21121 3.3345,9.49641 -7.9e-4,3.01766 -0.32636,6.30719 -0.90319,9.12438 l -0.2407,1.17553 H 77.472439 49.644199 Z m -0.015,-0.11195 c -1.16476,-7.37938 -0.79307,-13.08414 1.02821,-15.78118 0.79047,-1.17056 3.31431,-3.22779 5.70605,-4.65111 2.35959,-1.40419 4.98742,-2.53719 8.31633,-3.58563 l 2.62629,-0.82714 -1.74383,-1.07713 c -6.19965,-3.82943 -10.58375,-10.30807 -12.30528,-18.18424 -0.57849,-2.64666 -0.57261,-9.36613 0.0105,-12.03929 2.23629,-10.25121 9.09062,-18.07617 18.12801,-20.6951 9.955827,-2.88509 20.339043,1.18826 26.457853,10.37943 1.828694,2.74691 3.065468,5.52819 3.989768,8.9722 0.67194,2.50369 0.69094,2.70827 0.68636,7.38907 -0.005,4.65847 -0.027,4.89733 -0.69256,7.38907 -1.858007,6.95556 -5.852398,12.74632 -11.240978,16.29627 l -2.0726,1.36542 0.97023,0.24512 c 5.59575,1.41373 9.846324,3.42119 13.595788,6.42101 2.86851,2.29499 3.60064,4.29198 3.59967,9.81863 -5.3e-4,3.1473 -0.1419,4.59817 -0.8017,8.22873 l -0.35605,1.95922 H 77.462959 49.640009 Z"
       style="display:inline;fill:#000000;stroke-width:0.223911"
       id="path858" />
    <path
       d="M 111.42578,26.453125 C 98.226,26.360552 86.541804,28.568947 76.777344,33.322266 69.189833,37.015852 61.835523,42.484675 55.810547,48.857422 44.24679,61.08866 37.768298,76.602307 35.646484,96.208984 c -0.290607,2.685524 -0.333727,7.145456 -0.332031,11.839846 8.48e-4,2.34719 0.02673,4.65639 0.08008,6.58594 0.05335,1.92954 0.06227,3.17704 0.294922,4.66015 0.491013,3.13015 1.669287,7.58485 2.892578,11.29883 0.990744,3.00795 2.54634,7.09146 3.949219,10.55078 0.701439,1.72966 1.3565,3.28343 1.90625,4.49414 0.274875,0.60536 0.511687,1.10923 0.785156,1.61914 0.136735,0.25496 0.262043,0.495 0.546875,0.9043 0.142417,0.20465 0.300148,0.44836 0.738281,0.88086 0.438134,0.4325 1.027315,1.65234 4.003907,1.65234 1.692103,0 1.424537,-0.17992 1.591797,-0.22851 0.16726,-0.0486 0.246562,-0.0767 0.318359,-0.10157 0.143594,-0.0497 0.231976,-0.0835 0.330078,-0.12109 0.196203,-0.0753 0.405324,-0.15755 0.662109,-0.26172 0.513572,-0.20833 1.201801,-0.49323 2.039063,-0.84375 1.674524,-0.70104 3.933016,-1.66056 6.392578,-2.71484 l 8.900391,-3.81445 a 5.6281944,5.6281944 0 0 0 3.316406,-6.19922 l -0.632812,-3.40625 a 5.6281944,5.6281944 0 0 0 0,-0.002 c -1.582956,-8.51699 -2.777291,-19.2569 -2.779297,-23.69531 -0.0016,-3.52187 0.961194,-13.910795 1.726562,-18.199218 0.916487,-5.135158 2.100634,-8.845712 3.722656,-12.0625 4.516742,-8.957592 18.703577,-18.607792 31.828121,-20.519531 13.58089,-1.978209 30.94241,3.149132 42.60938,12.894531 2.4809,2.072295 6.14914,6.061193 7.15234,7.535156 4.63974,6.817004 7.20836,15.595882 7.54688,27.423832 0.4374,15.28278 -3.61197,28.48585 -9.95313,35.85351 -2.16085,2.51067 -6.5427,5.19771 -14.93359,7.98828 -1.14253,0.37997 -3.28597,0.98898 -5.25781,1.54883 -0.002,-0.25825 -0.008,-0.30732 -0.01,-0.58203 l -0.0586,-7.7207 a 5.6281944,5.6281944 0 0 0 -9.83399,-3.69532 l -10.1875,11.46485 c -2.81369,3.16595 -5.37047,6.07316 -7.23828,8.22461 -0.9339,1.07572 -1.69266,1.95818 -2.24414,2.61328 -0.27574,0.32755 -0.49537,0.59197 -0.69141,0.83789 -0.098,0.12296 -0.18333,0.23169 -0.3164,0.41601 -0.0665,0.0922 -0.1415,0.19005 -0.28711,0.42969 -0.0728,0.11982 -0.16261,0.2658 -0.30859,0.58203 -0.073,0.15812 -0.16207,0.35735 -0.26563,0.68946 -0.0518,0.16605 -0.10797,0.36719 -0.1582,0.63281 -0.0502,0.26562 -0.0977,1.04629 -0.0977,1.04687 0,5.9e-4 0.0468,0.76928 0.0937,1.02344 0.0469,0.25416 0.0979,0.44416 0.14453,0.59961 0.0933,0.3109 0.17077,0.49295 0.23438,0.63867 0.12721,0.29146 0.20507,0.42645 0.26758,0.53711 0.125,0.22133 0.18939,0.31378 0.24804,0.40235 0.1173,0.17712 0.19793,0.28762 0.29102,0.41601 0.18617,0.25678 0.40095,0.54411 0.67383,0.90235 0.54575,0.71646 1.30424,1.69271 2.23632,2.88281 1.86418,2.3802 4.4189,5.60575 7.23047,9.12109 l 10.1875,12.73828 a 5.6281944,5.6281944 0 0 0 10.02149,-3.47265 l 0.0586,-7.6543 0.0176,-2.27539 -1.40234,0.0527 c 14.46557,-0.54388 24.13703,-1.94116 31.09961,-5.61523 5.21343,-2.75106 9.43934,-5.96411 14.16406,-10.70117 10.68442,-10.7123 16.25616,-23.20099 18.30859,-40.38477 0.75225,-6.29874 0.73647,-21.18497 0.0156,-27.605467 C 195.58351,83.157971 191.98872,72.326091 184.91992,61.589844 181.56804,56.498934 178.0354,52.31209 173.34766,47.841797 161.34177,36.392845 144.9031,29.567213 125.13672,27.3125 c -4.73626,-0.540256 -9.30984,-0.828509 -13.71094,-0.859375 z"
       inkscape:href="#path869"
       id="path874"
       xlink:href="#path869"
       inkscape:original="M 111.38672 32.080078 C 98.841643 31.992097 88.026646 34.105605 79.240234 38.382812 C 72.34863 41.737632 65.446852 46.856045 59.900391 52.722656 C 49.221303 64.01816 43.269661 78.079532 41.242188 96.814453 C 40.838492 100.54504 40.844007 115.83371 41.25 118.42188 C 41.635439 120.87901 42.806419 125.42961 43.927734 128.83398 C 45.75379 134.37798 50.088767 145.06836 50.511719 145.06836 C 50.631031 145.06836 54.733871 143.35018 59.628906 141.25195 L 68.529297 137.4375 L 67.896484 134.03125 C 66.258049 125.21575 65.025837 114.61484 65.023438 109.30859 C 65.021414 104.96976 65.961572 95.018291 66.835938 90.119141 C 67.818773 84.612228 69.158316 80.311331 71.074219 76.511719 C 76.806536 65.143401 92.110067 55.142989 107.11719 52.957031 C 122.63705 50.696389 141.18067 56.272872 154.14453 67.101562 C 157.09404 69.565286 160.72438 73.41265 162.3418 75.789062 C 167.71166 83.678806 170.50145 93.644441 170.86133 106.21875 C 171.32854 122.5429 167.20589 137.00772 159.54883 145.9043 C 156.32987 149.64436 150.94893 152.62596 142.125 155.56055 C 138.67762 156.70705 130.49645 158.95117 129.76172 158.95117 C 129.58668 158.95117 129.49668 156.6862 129.45508 151.23047 L 129.39648 143.50977 L 119.20898 154.97461 C 113.60561 161.27949 109.02148 166.5599 109.02148 166.70898 C 109.02148 166.85806 113.60561 172.71084 119.20898 179.7168 L 129.39648 192.45508 L 129.45508 184.80078 L 129.51562 177.14648 L 133.48633 176.99805 C 147.6236 176.46651 156.76158 174.88322 162.16992 172.0293 C 166.93648 169.51405 170.51139 166.80692 174.97656 162.33008 C 184.87227 152.40855 189.72468 141.63639 191.68164 125.25195 C 192.2555 120.44689 192.26339 104.01863 191.69336 98.941406 C 190.05201 84.321962 186.84467 74.74719 180.21875 64.683594 C 177.07469 59.908333 173.91706 56.159757 169.46484 51.914062 C 158.50219 41.459953 143.35163 35.054889 124.49805 32.904297 C 119.94248 32.384652 115.56841 32.109405 111.38672 32.080078 z "
       inkscape:radius="5.6276317"
       sodipodi:type="inkscape:offset"
       style="display:none;fill:#ffffff;stroke-width:0.846278" />
    <path
       id="path869"
       d="m 119.20912,179.71763 c -5.60337,-7.00596 -10.18795,-12.86008 -10.18795,-13.00916 0,-0.14908 4.58458,-5.4296 10.18795,-11.73448 l 10.18796,-11.46344 0.0589,7.71987 c 0.0416,5.45573 0.13152,7.71985 0.30656,7.71985 0.73473,0 8.9146,-2.24246 12.36198,-3.38896 8.82393,-2.93459 14.2053,-5.91716 17.42426,-9.65722 7.65706,-8.89658 11.78046,-23.36074 11.31325,-39.68489 -0.35988,-12.574309 -3.15003,-22.539443 -8.51989,-30.429186 -1.61742,-2.376413 -5.24819,-6.224389 -8.1977,-8.688112 -12.96386,-10.82869 -31.50664,-16.406455 -47.0265,-14.145813 -15.00712,2.185958 -30.311459,12.188118 -36.043776,23.556436 -1.915903,3.799612 -3.255303,8.099816 -4.238138,13.606729 -0.874366,4.89915 -1.814129,14.851096 -1.812105,19.189926 0.0024,5.30625 1.234258,15.90701 2.872693,24.72251 l 0.633063,3.40617 -8.900065,3.81496 c -4.895035,2.09823 -8.997682,3.81497 -9.116994,3.81497 -0.422952,0 -4.759338,-10.68956 -6.585394,-16.23356 -1.121315,-3.40437 -2.29103,-7.95473 -2.676469,-10.41187 -0.405993,-2.58816 -0.411496,-17.87684 -0.0078,-21.607425 2.027473,-18.734921 7.977587,-32.7973 18.656675,-44.092804 5.546461,-5.866611 12.449747,-10.984624 19.341351,-14.339443 11.715216,-5.702943 27.033989,-7.5575 45.256259,-5.47892 18.85358,2.150592 34.00523,8.555895 44.96788,19.010005 4.45222,4.245695 7.60911,7.994653 10.75317,12.769914 6.62592,10.063596 9.83306,19.638959 11.47441,34.258403 0.57003,5.07722 0.56356,21.5045 -0.0103,26.30956 -1.95696,16.38444 -6.8108,27.15712 -16.70651,37.07865 -4.46517,4.47684 -8.03854,7.1833 -12.8051,9.69855 -5.40834,2.85392 -14.54715,4.43683 -28.68442,4.96837 l -3.97155,0.14933 -0.0589,7.65458 -0.0589,7.65459 z"
       style="display:inline;fill:#000000;stroke-width:0.223911" />
    <path
       transform="scale(0.26458333)"
       id="path878"
       d="M 4.2652074,298.00088 C 2.692507,292.37963 1.6050183,278.97717 1.6043285,265.2076 c -7.189e-4,-14.35278 0.2035253,-16.71537 1.9021682,-22.00324 2.4934958,-7.76224 6.1594971,-12.55702 14.2652303,-18.65757 12.044856,-9.06523 22.928389,-14.513 41.331585,-20.68861 5.094059,-1.70943 9.388721,-3.48844 9.543694,-3.95336 0.154973,-0.46492 -2.970533,-3.00967 -6.94557,-5.65501 C 46.511268,184.14096 34.882831,170.68751 26.564875,153.59878 17.69161,135.3692 14.966379,121.37715 15.831491,98.490771 16.877077,70.829993 27.1544,46.749467 45.997535,27.809512 65.561035,8.1454884 89.496195,-0.96351412 116.69737,0.90328044 151.87344,3.3173851 184.04695,29.93492 197.31789,67.601613 c 4.82281,13.688477 5.6454,19.149916 5.60845,37.236247 -0.0305,14.91723 -0.24806,17.36957 -2.26517,25.52974 -4.19472,16.9696 -10.79837,30.47233 -21.32721,43.6085 -6.43269,8.02567 -11.46485,12.62876 -21.81903,19.95862 l -7.42031,5.25292 3.18892,0.98027 c 14.80688,4.55162 20.34887,6.49389 26.32815,9.22709 3.79701,1.73566 6.90365,3.47041 6.90365,3.85501 0,0.3846 -2.43643,4.42547 -5.41429,8.97973 -12.36001,18.90306 -22.83707,41.04142 -30.65242,64.76953 l -4.11141,12.4826 H 75.508391 c -66.7340022,0 -70.8527911,-0.0856 -71.2431836,-1.48099 z"
       style="display:inline;fill:#000000;stroke-width:0.846278" />
    <path
       transform="scale(0.26458333)"
       id="path880"
       d="M 747.3226,393.2072 C 745.73995,350.5655 735.88553,305.50257 720.78577,271.85793 708.72192,244.97777 689.7113,216.33286 670.10124,195.48724 l -6.48439,-6.89295 1.40238,-5.58292 c 2.95444,-11.76168 9.66907,-25.7126 17.51863,-36.39828 12.57828,-17.12294 31.61447,-30.14883 51.96256,-35.55642 7.34703,-1.95251 10.0906,-2.24374 21.13708,-2.24374 10.90256,0 13.83024,0.30258 20.74354,2.1439 26.88486,7.16065 49.13387,26.29716 62.25241,53.54365 8.4654,17.58216 11.11815,31.73051 10.23443,54.58495 -0.53054,13.72051 -2.08271,21.53347 -6.73104,33.88111 -7.2796,19.33725 -21.30623,37.24513 -38.0499,48.57856 -7.25019,4.90749 -8.68181,6.39955 -6.14031,6.39955 0.69554,0 6.31271,1.6616 12.4826,3.69242 17.49394,5.75816 32.90373,14.15879 43.54551,23.73879 8.61209,7.75283 10.91094,16.67867 10.15381,39.42478 -0.39897,11.98614 -2.06253,26.41698 -3.63401,31.52387 -0.42803,1.39098 -3.86434,1.48099 -56.54292,1.48099 h -56.08721 z"
       style="fill:#000000;stroke-width:0.846278" />
  </g>
</svg>
