<?xml version="1.0" encoding="UTF-8" standalone="no"?>
<svg xmlns="http://www.w3.org/2000/svg" width="250px" height="250px" viewBox="0 0 228.83548 223.3913" version="1.1">
	<style type="text/css">
		.primary { fill: white; }
		.secondary { fill: #000; }
	</style>
	<g transform="translate(-8.8195682,-11.181047)">
		<path class="secondary"
			d="m 123.86719,11.871094 c -3.00449,-0.04145 -6.01142,0.264101 -8.92969,1.037109 -13.67834,3.623205 -25.5137,14.351598 -29.925781,27.605469 -1.743315,5.236898 -2.299046,10.899846 -1.65625,16.429687 0.316451,2.722366 0.867897,5.447248 1.568359,8.080079 -19.487306,4.984083 -35.859327,10.318134 -48.220703,15.714843 -12.460371,5.439928 -21.210932,9.68145 -25.433594,18.404297 -3.1170476,6.439002 -0.740076,14.097842 3.896485,19.054692 7.180216,7.67624 18.150214,10.48787 37.910156,12.94921 9.401835,1.17112 13.009552,2.1459 13.773437,2.51758 1.120615,0.54525 4.228173,3.31413 6.611329,7.00782 2.383155,3.69368 4.269368,8.25476 4.86914,11.71093 1.057912,6.09623 4.673425,11.1076 12.210938,19.58399 10.873784,12.22824 21.615414,22.62213 30.248044,29.07617 -2.52997,0.7675 -5.39234,1.48382 -8.34765,1.89648 -4.78075,0.66756 -9.77009,0.31466 -10.20508,0.18164 -2.12029,-0.64834 -2.815656,-1.09413 -3.750002,-2.07421 -0.934346,-0.98009 -2.176599,-2.90561 -3.726562,-6.50196 -1.135883,-2.63556 -1.982366,-4.51458 -3.167969,-6.35156 -1.185604,-1.83698 -3.218941,-3.81663 -5.255859,-4.7832 -2.312926,-1.09756 -5.577204,-1.3127 -7.990235,-0.62696 -2.413031,0.68575 -4.152172,1.81943 -5.896484,3.10352 -3.694084,2.7194 -6.811372,5.49598 -7.591797,11.31445 -0.05159,0.38462 -0.182312,0.96193 -0.121094,2.18164 0.06122,1.21971 0.612085,3.17277 1.484375,4.45899 1.744581,2.57243 2.788522,2.73493 3.779297,3.39258 1.592743,1.0572 4.943912,5.27766 6.121094,8.6289 0.403306,1.14816 0.771337,2.80841 2.597656,4.7793 1.826319,1.97089 3.373297,2.43566 4.511719,2.95508 5.335042,2.43416 16.702869,5.97874 23.230471,7.5664 5.06877,1.23284 11.71921,2.50519 15.92773,2.97461 4.49644,0.50156 9.02717,0.0925 13.36328,-1.04883 10.52788,-2.77101 21.3743,-9.47841 29.75391,-17.91406 6.90699,-6.9532 11.78445,-13.6915 12.30664,-21.82812 0.16918,-2.63609 -0.50023,-6.24649 -1.77148,-9.13672 -1.62692,-3.6989 -3.78963,-10.444 -5.40625,-16.79883 -1.61663,-6.35483 -2.6959,-12.91174 -2.72461,-14.73828 -0.0186,-1.18219 1.48121,-6.26173 4.15234,-10.49024 2.67113,-4.2285 6.6113,-7.88222 7.98438,-8.54687 1.5252,-0.73829 2.71381,-1.01686 15.07031,-2.66797 18.3918,-2.45755 28.1341,-4.98925 35.16601,-11.41602 2.965,-2.70983 5.39234,-6.35138 6.35742,-10.05664 0.69997,-2.68731 0.71921,-6.10607 -0.40234,-9.02148 -1.12155,-2.915416 -2.9503,-5.085007 -5.0039,-7.095704 -7.72147,-7.560145 -20.23588,-13.142291 -39.87891,-19.710937 -10.45333,-3.495597 -18.73271,-5.924953 -29.42383,-8.658203 2.03228,-7.352378 2.39234,-14.993293 0.60352,-22.070313 -3.55252,-14.054635 -15.41959,-25.489863 -29.78711,-29.779297 -2.8901,-0.862834 -5.87858,-1.247639 -8.88086,-1.289062 z"
		/>
		<path class="primary"
			d="m 123.23715,226.53675 c -3.45974,-0.3859 -10.28102,-1.66363 -14.97027,-2.80416 -5.67928,-1.38133 -18.361075,-5.4964 -21.863505,-7.09442 -2.23703,-1.02067 -2.274918,-1.06159 -3.064792,-3.31024 -1.752953,-4.99038 -5.432897,-10.02746 -9.10785,-12.46675 -1.913147,-1.26988 -1.967588,-1.35008 -1.794163,-2.64306 0.25165,-1.87618 2.074805,-4.34963 4.548149,-6.17039 2.734441,-2.01298 4.444858,-2.49978 6.07135,-1.72796 1.54853,0.73482 2.516878,2.23583 4.679289,7.25322 3.442127,7.98669 6.374211,11.06187 12.264456,12.86299 5.878576,1.79756 20.702676,-0.27255 28.239716,-3.94354 3.72499,-1.81429 4.95264,-3.70846 3.87212,-5.97435 -0.38324,-0.80363 -1.68487,-1.93285 -4.20656,-3.64934 -7.81307,-5.31828 -19.88323,-16.75384 -31.648421,-29.98452 -7.346656,-8.26176 -9.703813,-11.84799 -10.391291,-15.80959 -1.672672,-9.63873 -9.043328,-21.06274 -15.669648,-24.28687 -2.505839,-1.21925 -6.61135,-2.03922 -16.17403,-3.23037 -19.311651,-2.4055 -28.291882,-5.26257 -33.270415,-10.58503 -3.223677,-3.44636 -4.166393,-7.25671 -2.597306,-10.49803 4.331642,-8.947969 30.262659,-20.268697 69.087838,-30.161724 4.031702,-1.02732 7.402066,-1.939544 7.489692,-2.027174 0.08764,-0.08764 -0.249817,-1.08446 -0.749875,-2.215184 -1.310624,-2.963554 -2.547298,-7.867326 -3.028906,-12.010498 -0.507649,-4.3672 -0.03671,-9.066458 1.315769,-13.12929 3.358334,-10.088419 13.920533,-19.793591 24.628293,-22.629931 4.19153,-1.110278 9.56067,-1.036198 13.66287,0.188511 11.65391,3.479284 21.84004,13.56823 24.55885,24.324523 1.72774,6.835347 1.03316,15.041696 -1.90034,22.452101 -0.48416,1.223086 -0.92911,2.427405 -0.98876,2.676265 -0.0757,0.315333 2.13347,1.023257 7.2886,2.335733 10.83544,2.758657 18.90804,5.131025 29.41217,8.64361 19.23973,6.433783 31.08928,12.180843 36.95347,17.922518 3.27941,3.21089 4.17984,5.55314 3.35386,8.72425 -0.64636,2.48157 -1.74286,4.17063 -4.11475,6.3384 -5.09727,4.65861 -13.0032,7.07548 -31.02019,9.48295 -12.41489,1.65891 -14.83686,2.12719 -17.3873,3.36175 -7.58797,3.67305 -16.57915,17.90668 -16.45124,26.04342 0.10892,6.92833 4.85374,25.58137 8.77495,34.49648 1.21273,2.75719 1.29474,3.15756 1.14017,5.56601 -0.29946,4.6661 -3.8799,10.66772 -10.09936,16.92879 -7.38943,7.43885 -17.6091,13.62567 -26.2754,15.9067 -2.80445,0.73814 -7.88169,1.14376 -10.56724,0.8442 z"
		/>
	</g>
</svg>