<?xml version="1.0" encoding="UTF-8" standalone="no"?>
<svg xmlns="http://www.w3.org/2000/svg" width="250px" height="250px" viewBox="0 0 228.83548 223.3913" version="1.1">
	<style type="text/css">
		.primary { fill: yellow; }
		.secondary { fill: #000; }
	</style>
	<g transform="translate(-8.8195682,-11.181047)">
		<path class="secondary"
			d="m 122.84375,11.728516 c -2.92553,0.04036 -5.83431,0.42051 -8.59961,1.246093 -9.03151,2.696366 -16.90986,8.343619 -22.818359,16.166016 C 83.899137,39.105329 82.141562,51.750891 85.818359,64.5 76.062444,65.920986 64.748489,68.314956 55.185547,71.089844 41.394475,75.091612 30.48758,79.9589 22.578125,86 14.66867,92.0411 9.5278461,99.824595 9.4785156,108.54688 9.4634843,111.20448 10.01242,114.01875 11,116.14844 c 4.089438,8.81877 13.965999,12.86935 27.039062,14.74023 2.783122,0.39829 6.947822,0.69588 11.103516,0.91602 -12.333065,11.08162 -19.979495,27.42641 -23.544922,48.85937 -1.336027,8.03131 -1.822941,15.07409 -1.828125,26 -0.003,6.26521 -0.0065,9.83872 0.50586,13.01758 0.512338,3.17886 2.230462,6.18681 3.771484,7.9375 1.757656,1.99681 4.325866,3.90506 7.214844,4.8418 2.888978,0.93673 5.839932,1.18531 9.800781,1.36718 3.524582,0.16184 15.029522,0.27649 26.611328,0.3086 11.894201,0.033 17.232942,0.1703 21.169922,-0.29102 1.96849,-0.23066 4.05679,-0.76875 5.779297,-1.98242 1.722503,-1.21367 2.363843,-2.28814 2.867183,-2.88086 6.11012,-7.19505 11.68033,-19.33903 19.31055,-39.58398 1.1575,-3.07116 1.90545,-4.35518 2.5957,-5.58203 0.0683,0.12478 0.0742,0.083 0.14454,0.2207 -0.2136,-0.41785 1.62029,3.86192 2.87304,7.20898 4.55239,12.16299 8.78615,21.8199 12.69727,28.85352 1.95556,3.51681 3.8087,6.37803 5.79492,8.69141 1.98622,2.31337 4.01837,4.44911 7.77734,5.15429 1.22975,0.2307 1.27792,0.14621 1.83203,0.16797 0.55412,0.0218 1.2153,0.0383 2.00391,0.0508 1.57722,0.025 3.65357,0.0359 6.08594,0.0371 4.86473,0.002 11.13868,-0.0369 17.42969,-0.10351 6.291,-0.0666 12.59289,-0.15965 17.50586,-0.26563 2.45648,-0.053 4.56263,-0.10933 6.17382,-0.16797 1.6112,-0.0586 1.88348,0.0726 3.7793,-0.26562 3.62337,-0.64641 7.06224,-1.92856 9.77734,-4.42774 2.71511,-2.49917 4.26652,-5.94929 4.95508,-9.44922 0.39416,-2.00343 0.34796,-3.36538 0.38672,-5.63281 0.0388,-2.26742 0.0239,-4.99461 -0.0332,-7.85742 -0.11418,-5.72562 -0.38188,-11.86233 -0.82031,-15.91406 -2.80612,-25.93244 -9.54256,-45.1789 -21.47461,-57.17969 7.63428,-0.39925 14.35549,-1.42334 19.91796,-3.34375 9.06536,-3.12976 16.14337,-9.51341 16.95118,-18.16406 1.16476,-12.473294 -7.65339,-24.104657 -20.35352,-31.669924 -13.67546,-8.146258 -34.29803,-13.592438 -55.99805,-15.654297 1.46596,-5.130342 2.16469,-10.593162 1.76368,-15.431641 -0.69576,-8.395045 -3.91834,-15.530059 -9.97266,-22.564453 -5.43997,-6.320604 -13.18292,-11.282918 -21.0957,-13.378906 -2.79681,-0.740836 -5.72629,-1.042352 -8.6543,-1.001953 z"
		/>
		<path class="primary"
			d="m 45.352182,227.52688 c -7.544922,-0.34645 -9.982639,-1.13701 -12.570124,-4.07656 -2.463146,-2.79828 -2.711123,-4.33673 -2.705217,-16.78318 0.0051,-10.74881 0.459399,-17.26508 1.740644,-24.96707 3.808807,-22.896 12.075447,-38.63631 25.450084,-48.45889 2.141873,-1.57303 9.127567,-5.25443 11.714161,-6.17327 0.637553,-0.22647 1.159185,-0.56522 1.159185,-0.75276 0,-0.59128 -2.487489,-0.77776 -7.476783,-0.56051 -5.56576,0.24237 -18.514896,-0.3632 -23.732055,-1.10982 -12.186898,-1.74406 -19.564807,-5.44848 -22.209292,-11.15125 -0.790843,-1.70543 -0.951559,-2.54677 -0.938185,-4.91135 0.07162,-12.663355 14.535582,-23.710295 41.159436,-31.435763 9.785112,-2.839355 21.840839,-5.406957 31.56551,-6.722746 2.354038,-0.31851 4.629868,-0.650879 5.057402,-0.738594 l 0.777335,-0.159482 -0.864789,-2.12825 C 88.210837,54.431136 89.242812,42.493776 96.458202,32.941149 101.6352,26.087205 108.34615,21.317736 116.04883,19.018094 c 4.15378,-1.240115 9.59046,-1.315127 13.83472,-0.190882 6.31712,1.673318 13.47685,6.224714 17.92856,11.397072 5.52018,6.41379 7.86367,11.663339 8.46939,18.971974 0.40116,4.840254 -0.89005,12.262696 -3.0614,17.598302 -0.56296,1.383363 -0.9494,2.589362 -0.85877,2.679998 0.0906,0.09063 1.97182,0.30114 4.18042,0.467787 22.31849,1.68402 44.01093,7.478717 57.03135,15.234777 11.25684,6.705523 18.12201,16.889558 17.30238,25.666898 -1.07983,11.56365 -17.5994,17.26698 -45.80147,15.81284 -4.95364,-0.25542 -8.54745,-0.3026 -8.73538,-0.11468 -0.18793,0.18793 0.24194,0.41816 1.04487,0.55962 5.60978,0.98834 12.43213,4.55381 17.25208,9.01623 11.04546,10.22615 18.02377,28.52269 20.85391,54.67718 0.78218,7.22846 1.12883,24.56693 0.54998,27.50915 -1.03432,5.25738 -3.85024,7.84938 -9.65183,8.88438 -2.55243,0.45534 -50.3811,0.96319 -52.54157,0.55789 -4.86287,-0.91228 -12.55667,-14.74899 -21.52576,-38.71244 -1.2895,-3.44526 -2.71375,-6.98637 -3.16499,-7.86913 -1.85164,-3.62237 -3.74269,-5.34467 -5.87021,-5.3464 -3.07184,-0.003 -5.18267,2.85567 -8.38612,11.35526 -7.54853,20.0282 -13.29725,31.934 -18.216163,37.72634 -2.696944,3.17583 -1.169871,2.99675 -24.99079,2.93059 -11.544374,-0.032 -23.397309,-0.16886 -26.339855,-0.30397 z"
		/>
		<path class="secondary" transform="matrix(0.26458333,0,0,0.26458333,8.8195682,11.181047)"
			d="m 399.50114,588.45522 c -1.5481,-3.53572 -27.5214,-67.01786 -57.71843,-141.07143 -30.19703,-74.05357 -55.39501,-134.64286 -55.99551,-134.64286 -1.56197,0 -1.28618,121.62661 0.34336,151.42857 0.75184,13.75 2.35908,31.10714 3.57164,38.57143 5.75204,35.40849 19.02908,58.12936 39.32931,67.30391 5.57136,2.51795 7.09245,3.92258 7.09245,6.54939 0,2.94056 -0.47397,3.22209 -3.92857,2.3336 -2.16072,-0.55571 -29.16005,-1.05011 -59.99852,-1.09864 -49.08895,-0.0773 -56.07012,-0.35766 -56.07142,-2.25203 -8.9e-4,-1.2875 4.12798,-4.0877 10.19527,-6.91444 23.77825,-11.0783 34.16412,-30.79296 38.4911,-73.06465 1.0673,-10.42681 1.74462,-48.26395 1.85404,-103.57143 0.15964,-80.70302 -0.0208,-87.76893 -2.44243,-95.61481 -4.18419,-13.55672 -9.03986,-17.2215 -30.59947,-23.09477 -0.98214,-0.26755 -1.78572,-1.87485 -1.78572,-3.57177 0,-3.05915 0.16048,-3.07637 18.92858,-2.03147 15.76781,0.87787 56.51901,0.9707 89.32856,0.20349 l 7.54284,-0.17638 45.42054,96.34494 c 24.9813,52.98972 46.0156,96.52466 46.74287,96.74433 0.72729,0.21967 20.01539,-43.13556 42.86246,-96.34493 l 41.54014,-96.74434 9.17414,0.17491 c 39.57315,0.75447 77.47053,0.66651 90.95987,-0.21114 15.72782,-1.02328 16.07143,-0.9812 16.07143,1.96808 0,2.12445 -1.15921,3.27037 -3.92857,3.88352 -14.0091,3.10169 -21.2946,9.45624 -25.5828,22.31379 -5.22933,15.67942 -3.91238,220.54068 1.54567,240.44227 5.24185,19.1132 13.7498,28.78901 30.24417,34.39561 6.43559,2.18753 7.72153,3.18906 7.72153,6.01373 0,3.08536 -0.4161,3.29554 -4.64285,2.34514 -6.23068,-1.40097 -149.45903,-1.42318 -153.6789,-0.0238 -2.99906,0.99451 -3.27662,0.71658 -2.85715,-2.86086 0.40163,-3.42526 1.61319,-4.36277 8.93777,-6.91609 19.37075,-6.75257 24.42048,-17.77204 26.55758,-57.95371 1.77375,-33.35019 1.82391,-202.43205 0.0596,-200.64286 -0.97307,0.98675 -105.74736,244.00575 -120.68735,279.92857 l -1.78238,4.28572 -2.81474,-6.42857 z"
		/>
	</g>
</svg>
