<?xml version="1.0" encoding="UTF-8" standalone="no"?>
<svg xmlns="http://www.w3.org/2000/svg" width="228.83548mm" height="223.3913mm" viewBox="0 0 228.83548 223.3913" version="1.1">
	<style type="text/css">
		.primary { fill: black; }
		.secondary { fill: #fff; }
	</style>
	<g>
		<path class="secondary"
			d="m 142.05469,0.15429688 c -3.98183,-0.0140063 -8.03478,0.83383397 -11.16407,2.36718752 -6.5121,3.1909311 -10.65009,9.0826056 -12.79101,15.8945316 -0.991,3.153911 -1.41424,6.564631 -1.30273,10.001953 0.0781,2.40781 0.69697,5.427275 1.4082,7.097656 1.73251,4.068846 4.5242,7.74507 7.74609,11.357422 -5.71325,3.947906 -10.13347,7.656539 -13.05859,12.382812 -5.59914,9.046854 -9.18486,19.913189 -10.19336,30.699219 -0.45616,4.878767 -0.45929,10.194262 0.56445,15.056642 1.10898,5.26724 3.61431,11.21271 6.71094,17.52734 -4.05823,5.90502 -8.23058,9.9712 -9.34766,10.53711 -1.034913,0.52429 -0.005,0.34245 -1.753903,0.26367 -1.734935,-0.0781 -2.158702,-0.15904 -4.863281,-1.48437 -1.91158,-0.93674 -6.257989,-3.75945 -7.927735,-5.1543 -6.369938,-5.32122 -16.197919,-17.68392 -26.386719,-34.10742 l 0.002,-4.923828 a 8.576669,8.576669 0 0 0 -3.621094,-7 8.576669,8.576669 0 0 0 -0.13086,-0.0918 l 0.13086,0.08789 V 80.417969 A 8.576669,8.576669 0 0 0 47.5,71.841797 h -4.423828 -4.425781 a 8.576669,8.576669 0 0 0 -8.556641,7.994141 l 2.255859,-0.75586 a 8.576669,8.576669 0 0 0 -2.273437,1.183594 8.576669,8.576669 0 0 0 -0.002,0.154297 v -0.152344 a 8.576669,8.576669 0 0 0 -3.517578,7.03125 l 0.08008,6.517578 c 0.0444,3.654233 0.103146,7.101527 0.214843,8.939457 l 0.121094,2.0039 a 8.576669,8.576669 0 0 0 4.244141,6.89063 c -0.0098,2.3802 -0.02114,4.92375 -0.03906,8.51758 -0.04537,9.09622 -0.115403,21.64091 -0.197265,35.43359 -0.163766,27.59204 -0.297269,51.75308 -0.298828,54.31055 l -0.0039,4.09961 a 8.576669,8.576669 0 0 0 8.900391,8.57812 l 3.767578,-0.14258 a 8.576669,8.576669 0 0 0 0.002,0 c 1.05934,-0.0404 2.024058,-0.0822 2.753906,-0.11719 0.364925,-0.0175 0.665389,-0.0329 0.927735,-0.0488 0.131173,-0.008 0.241741,-0.0146 0.417969,-0.0293 0.08811,-0.007 0.175528,-0.0131 0.414062,-0.043 0.119267,-0.0149 0.2541,-0.0259 0.632813,-0.10156 0.189356,-0.0378 0.422718,-0.0773 0.953125,-0.24805 0.265203,-0.0854 1.175442,-0.47639 1.175781,-0.47656 1.69e-4,-8e-5 1.089726,-0.64445 1.089844,-0.64453 1.17e-4,-8e-5 1.706818,-1.56651 1.710937,-1.57031 6.6e-5,-8e-5 1.908667,-4.40091 1.931641,-4.63477 0.02297,-0.23386 0.02563,-0.30947 0.0293,-0.37695 0.0073,-0.13497 0.0066,-0.17639 0.0078,-0.2168 0.0025,-0.0808 0.0032,-0.11399 0.0039,-0.15234 0.0014,-0.0767 0.0029,-0.14619 0.0039,-0.23438 0.002,-0.17639 0.0033,-0.41526 0.0059,-0.72656 0.0051,-0.6226 0.01197,-1.52762 0.01953,-2.69141 0.01513,-2.32757 0.03541,-5.68611 0.05859,-9.82812 0.04636,-8.28402 0.105978,-19.70163 0.167969,-32.25781 0.0999,-20.23425 0.201875,-34.3922 0.279297,-43.73438 2.476244,3.58571 4.945445,7.12603 6.783203,9.48633 2.79067,3.58415 7.080721,8.57726 9.873047,11.39453 2.673271,2.69714 5.492261,4.95516 8.654297,6.61523 4.678117,2.45601 10.016893,4.23812 15.236328,4.88086 3.689814,0.45436 6.814884,0.35884 10.554684,-0.58007 3.55916,-0.89366 6.69093,-2.59702 9.65235,-4.80665 0.29527,-0.22031 0.59295,-0.54509 0.89062,-0.78125 l -0.69336,3.88868 -3,16.79101 -2.42773,4.89844 c -5.07796,10.24695 -7.39998,15.91295 -9.02344,22.4043 -0.45487,1.81878 -1.11673,4.85472 -1.70703,7.65429 -0.29515,1.39979 -0.5633,2.7049 -0.761719,3.72071 -0.09921,0.5079 -0.17939,0.93147 -0.248047,1.33398 -0.03433,0.20126 -0.06581,0.37729 -0.105469,0.69336 -0.01983,0.15804 -0.04622,0.32177 -0.06641,0.76563 -0.01009,0.22192 -0.03338,0.48716 0.02148,1.13671 0.02743,0.32478 0.06047,0.73953 0.261719,1.49414 0.100626,0.37731 0.540698,1.47591 0.541018,1.47657 3.1e-4,6.6e-4 1.68126,2.38243 1.68164,2.38281 2e-4,2e-4 3.82685,2.2257 4.25586,2.31836 0.42901,0.0926 0.59575,0.10914 0.73633,0.12695 0.28115,0.0356 0.37506,0.0386 0.46093,0.0449 0.17176,0.0127 0.23519,0.0145 0.30274,0.0176 0.1351,0.006 0.23352,0.0101 0.35156,0.0137 0.23608,0.007 0.5275,0.0133 0.89648,0.0215 0.73797,0.0163 1.7662,0.0361 3.00977,0.0586 2.48715,0.0449 5.82528,0.10087 9.27344,0.1543 6.89381,0.10682 14.0368,0.208 16.125,0.21094 l 1.99023,0.004 a 8.576669,8.576669 0 0 0 8.57617,-9.1289 l -0.13476,-2.08789 c -0.19071,-2.94973 -0.15684,-5.23267 -2.25196,-8.79102 -2.03432,-3.45513 -4.28837,-4.36792 -6.35546,-5.27734 -0.72718,-0.31993 -1.53916,-0.40439 -2.28711,-0.64454 l 1.32422,-2.30273 7.69531,-13.37305 a 8.576669,8.576669 0 0 0 0.82617,-1.9707 l 2.48828,-8.90625 5.21094,8.4375 -2.58008,15.38281 c -0.85604,5.10207 -1.64641,9.79294 -2.22851,13.23438 -0.29106,1.72072 -0.53036,3.12911 -0.69922,4.11719 -0.0844,0.49403 -0.15161,0.88386 -0.19727,1.14648 -0.0359,0.20634 -0.0724,0.36482 0,0.043 -0.0772,0.30918 -0.17401,0.42575 -0.23633,0.82422 -0.37213,2.37934 1.29299,6.59848 3.13477,8.07422 3.68355,2.95147 4.33517,1.87718 5.00976,1.93359 0.6746,0.0564 1.12166,0.0569 1.70313,0.0586 2.32586,0.007 6.56906,-0.12398 16.4707,-0.37109 8.71612,-0.21755 15.5903,-0.38789 16.00391,-0.39844 0.003,-6e-5 0.005,-0.002 0.008,-0.002 3.08656,-0.0674 5.36999,-1.86736 6.33398,-2.98633 0.96489,-1.11999 1.24051,-1.85123 1.45899,-2.38476 0.43695,-1.06707 0.47163,-1.49746 0.53906,-1.875 0.13486,-0.75509 0.14562,-1.11043 0.16797,-1.49415 0.0447,-0.76742 0.0467,-1.4437 0.0352,-2.17382 -0.0232,-1.46026 0.27278,-1.91148 -0.48633,-4.92578 -1.37058,-5.44301 -5.413,-7.81665 -8.85156,-9.31836 -1.75344,-0.76578 -3.60667,-1.352 -5.58008,-1.82032 0.48828,-3.20381 1.02443,-6.71033 1.69336,-10.98242 l 3.01758,-19.26562 a 8.576669,8.576669 0 0 0 -0.87305,-5.30078 l -11.33789,-21.67383 c -3.11409,-5.95416 -5.94556,-11.38596 -7.99414,-15.33203 -0.69102,-1.33108 -1.14031,-2.20061 -1.63281,-3.1543 2.23215,-6.01808 4.16114,-12.1855 5.11718,-16.92578 0.74704,-3.703906 1.06992,-8.601068 1.39258,-15.541018 0.43952,-9.453696 -0.25957,-17.548086 -2.57031,-24.611328 -1.40201,-4.285498 -2.71111,-7.762899 -6.28516,-11.539062 -0.44093,-0.465872 -0.8808,-0.7883 -1.32031,-1.179688 0.92695,-1.112864 1.61155,-2.208387 2.19726,-3.332031 0.98389,-1.887491 1.74121,-3.890739 2.25196,-6.099609 1.15292,-4.986087 0.83679,-9.274529 -0.0234,-13.94336 C 167.07197,20.249039 164.83961,14.566816 161.29688,9.8652344 158.30248,5.8913778 154.14739,2.706485 149.4668,1.1445312 147.68877,0.55118716 144.98263,0.1645926 142.05469,0.15429688 Z M 126.33398,46.46875 c -0.007,0.04297 -0.0228,0.128906 -0.0234,0.128906 z m -0.125,0.708984 c 6.3e-4,6.95e-4 0.001,0.0013 0.002,0.002 -0.009,0.05277 -0.0163,0.09455 -0.0254,0.146484 l -0.002,-0.002 z m 0.35547,0.423828 c 0.34075,0.372614 0.6015,0.759394 0.95313,1.13086 l -0.99414,-1.050781 c 0.0149,-0.0293 0.0264,-0.05219 0.041,-0.08008 z m 23.32617,161.851558 c -0.052,0.0809 -0.18722,0.3118 -0.2871,0.45508 0.31946,-0.60809 0.53006,-0.83327 0.2871,-0.45508 z" />
		/>
		<path class="primary"
			d="m 142.02479,8.7306692 c -3.59628,-0.01265 -4.77618,0.226469 -7.36079,1.4929318 -3.6722,1.799377 -6.84499,5.873511 -8.38192,10.763684 -0.75445,2.40048 -1.00301,4.350735 -0.91209,7.153569 0.0735,2.26705 0.14104,2.641319 0.72605,4.015258 1.22186,2.86956 4.22639,7.065061 7.64967,10.681518 l 1.63349,1.725477 -0.59893,3.396692 c -0.32942,1.867985 -0.59886,3.446396 -0.59893,3.507796 -8e-5,0.0614 -1.15508,0.894484 -2.56677,1.851567 -5.67466,3.84724 -9.51542,7.359552 -11.42876,10.451041 -4.80722,7.767302 -8.07011,17.608725 -8.94674,26.984399 -0.34313,3.66985 -0.13616,9.859238 0.41755,12.489158 1.06863,5.07562 3.99601,12.17874 8.13335,19.96674 -5.10524,8.72761 -10.72226,15.20273 -15.28899,17.51624 -1.98011,1.00313 -3.4641,1.29411 -6.014102,1.17926 -2.798737,-0.12606 -4.978406,-0.74723 -8.249629,-2.35024 -2.890176,-1.41629 -7.162065,-4.19255 -9.653157,-6.27352 C 72.495534,126.52534 62.18963,113.19973 51.37554,95.515552 l -0.256834,-0.42013 0.0016,-7.42797 -1.809708,-1.21698 -1.810226,-1.21698 v -2.408121 -2.408122 h -4.424584 -4.424536 v 2.798795 2.798797 l -1.759583,0.588076 -1.760099,0.587563 0.07958,6.518462 c 0.04355,3.585046 0.133961,7.421108 0.201021,8.524548 l 0.121956,2.00608 2.111499,0.57774 c 1.161444,0.31786 2.133736,0.59862 2.160592,0.62373 0.02686,0.0251 -0.08533,22.61912 -0.24908,50.20882 -0.163752,27.58971 -0.298865,52.00899 -0.300241,54.26542 l -0.0021,4.1026 3.767211,-0.14315 c 2.07197,-0.079 3.780742,-0.16039 3.797702,-0.18087 0.01699,-0.0205 0.132349,-20.58143 0.256315,-45.69075 0.123968,-25.10931 0.280778,-49.55836 0.348297,-54.33104 l 0.122992,-8.67751 1.784387,-0.97565 1.784903,-0.97617 5.29e-4,-1.67845 0.837676,1.34255 c 6.034791,9.66941 13.416314,20.54574 17.525029,25.82271 2.477391,3.1818 7.011828,8.4196 9.199438,10.62675 2.177192,2.19663 4.46822,3.96646 6.549472,5.05912 3.351032,1.75929 8.881543,3.54068 12.29899,3.96152 2.15244,0.26505 5.525222,0.0896 7.417632,-0.38551 2.06842,-0.51935 4.36788,-1.6888 6.61045,-3.36207 2.14382,-1.59959 6.58961,-5.9816 8.93331,-8.80566 1.11251,-1.34054 2.40151,-3.01199 3.66076,-4.70256 0.90538,1.50866 1.84522,3.02591 2.81688,4.54391 l 1.57251,2.45618 -3.21531,17.99683 -3.21479,17.99684 -2.97036,5.99395 c -4.99104,10.07156 -6.92925,14.85024 -8.38605,20.67522 -0.74833,2.99219 -2.73589,12.41616 -2.63911,12.51293 0.0516,0.0516 25.77249,0.45136 29.36513,0.4563 l 1.99057,0.003 -0.13487,-2.08773 c -0.14638,-2.26413 -0.537,-4.06034 -1.08521,-4.99142 -0.7585,-1.28825 -3.43007,-2.46408 -6.78304,-2.98483 -0.88491,-0.13744 -3.10809,-0.30476 -4.94027,-0.37207 l -3.33106,-0.12248 7.69462,-13.37438 7.69513,-13.37385 3.8468,-13.77487 c 2.11574,-7.57608 3.87388,-13.80196 3.90725,-13.83534 0.0334,-0.0334 3.91636,6.18278 8.62842,13.81363 l 8.56743,13.87409 -3.11505,18.56424 c -1.71313,10.21037 -3.16077,18.76805 -3.21686,19.01693 -0.12442,0.552 -2.31763,0.54586 17.50332,0.0512 8.73849,-0.21811 15.95637,-0.39786 16.03933,-0.39998 0.24037,-0.005 0.17447,-4.15569 -0.0822,-5.17488 -0.68659,-2.72667 -5.48089,-4.82018 -13.23795,-5.78052 -1.36482,-0.16897 -2.52423,-0.3502 -2.57659,-0.40256 -0.0524,-0.0524 1.26228,-8.76346 2.92127,-19.35851 l 3.01635,-19.26394 -11.33626,-21.67465 c -6.2348,-11.92096 -11.33574,-21.74731 -11.33574,-21.83639 0,-0.0891 0.44093,-1.33154 0.9803,-2.76107 2.23866,-5.93327 4.21343,-12.39365 5.03845,-16.48427 0.47463,-2.353279 0.91785,-7.477747 1.23249,-14.245119 0.40814,-8.778737 -0.30195,-15.881524 -2.15491,-21.545454 -1.03072,-3.150582 -2.96369,-6.831571 -4.36356,-8.310605 -1.28886,-1.36176 -4.26693,-2.940709 -8.06979,-4.278292 -1.87752,-0.660381 -1.7985,-0.509103 -2.0066,-3.839559 l -0.14469,-2.31562 2.4815,-0.116274 c 2.59404,-0.121711 4.29004,-0.505904 5.25033,-1.189074 1.31459,-0.935223 2.8331,-3.847973 3.49229,-6.698816 0.54283,-2.34759 0.49499,-7.21314 -0.10283,-10.457759 -0.87454,-4.746337 -2.87878,-9.588018 -5.29892,-12.799796 -2.17523,-2.886746 -4.64065,-4.727452 -7.69721,-5.7474528 -1.45823,-0.486625 -1.90099,-0.537835 -4.72632,-0.54777 z"
		/>
	</g>
</svg>
