<?xml version="1.0" encoding="UTF-8" standalone="no"?>
<svg xmlns="http://www.w3.org/2000/svg" width="250px" height="250px" viewBox="0 0 228.83548 223.3913" version="1.1">
	<style type="text/css">
		.primary { fill: #ff8c00; }
		.secondary { fill: #000; }
	</style>
	<g transform="translate(-8.8195682,-11.181047)">
		<path class="secondary"
			d="m 17.84375,105.45508 a 8.3867086,8.3867086 0 0 0 -8.3867188,8.38672 l -0.00195,38.98437 c -1.654e-4,10.71332 -0.014235,20.83315 -0.037109,28.49805 -0.022875,7.66489 -0.084951,13.61407 -0.082031,13.53711 l -0.1289063,3.36719 a 8.3867086,8.3867086 0 0 0 8.3124998,8.70507 l 9.455078,0.0742 c 0.89689,0.007 1.480199,0.0185 2.304688,0.0273 0.607141,3.39055 1.455281,6.61717 2.910156,9.5332 4.99087,10.00337 14.944043,16.43331 26.505859,17.86719 4.423726,0.54863 8.253665,0.44541 12.648438,-0.34766 3.330611,-0.60103 6.464193,-1.62067 9.490234,-3.14453 8.247031,-4.15298 14.330087,-11.66869 16.916016,-20.61914 0.248306,-0.85945 0.390143,-1.71532 0.578125,-2.57031 l 19.910155,0.0898 a 8.3867086,8.3867086 0 0 0 0.002,0 c 14.12722,0.0638 26.59241,0.16586 30.08204,0.22266 3.37564,12.18434 13.59981,21.77887 26.52343,25.17187 3.65071,0.95848 6.80698,1.34857 10.82813,1.34961 2.88378,0.001 5.06119,-0.17648 7.13281,-0.625 10.88324,-2.35633 20.2009,-9.46723 25.07617,-19.375 1.70086,-3.45664 2.79427,-7.06804 3.19531,-10.76562 L 220.5,209.14453 h 0.60352 8.1289 a 8.3867086,8.3867086 0 0 0 8.38672,-8.38672 v -43.32617 -43.32812 a 8.3867086,8.3867086 0 0 0 -8.36523,-8.38672 l -52.94532,-0.13086 c -29.13133,-0.072 -76.693546,-0.13084 -105.716793,-0.13086 z m 129.36914,96.62695 c 0.17039,2.04315 0.56417,4.02196 1.0957,5.94922 l -0.59961,-0.0156 z"
		/>
		<path class="primary"
			d="m 59.727505,225.58455 c -9.44052,-1.1708 -16.236435,-5.67889 -20.033398,-13.28927 -1.606407,-3.21975 -2.431086,-6.49691 -2.789275,-11.0842 -0.122435,-1.56799 -0.264351,-2.89389 -0.315371,-2.94642 -0.05101,-0.0525 -4.347633,-0.12914 -9.548031,-0.17023 l -9.455268,-0.0747 0.127812,-3.36932 c 0.0703,-1.85311 0.128082,-20.91214 0.128413,-42.35338 l 6.03e-4,-38.98406 52.748926,5e-5 c 29.011907,2e-5 76.574424,0.059 105.694494,0.13096 l 52.94557,0.13094 v 43.32667 43.32667 h -8.12855 -8.12853 l -0.23432,2.16045 c -0.31304,2.88621 -0.98165,5.12379 -2.38046,7.96656 -3.66444,7.44708 -10.97136,13.07319 -19.32885,14.88267 -1.63613,0.35423 -2.63735,0.43547 -5.35525,0.43453 -3.70236,-9.6e-4 -5.41903,-0.21337 -8.70113,-1.07507 -11.87691,-3.11819 -20.48145,-12.66192 -21.40549,-23.7419 l -0.13058,-1.56569 -4.84046,-0.11934 c -2.66224,-0.0656 -17.20671,-0.17523 -32.32103,-0.24352 l -27.480559,-0.12417 v 1.42492 c 0,1.8914 -0.493199,5.12752 -1.103268,7.23911 -1.963624,6.79652 -6.530814,12.38619 -12.630109,15.45764 -1.90279,0.9582 -5.011851,1.9855 -7.20888,2.38197 -2.100778,0.3791 -8.005248,0.54126 -10.127009,0.27812 z"
		/>
	</g>
</svg>
