{
	"$schema": "http://json-schema.org/draft-07/schema#",
	"$id": "effects.schema.json",
	"title": "Player effects",
	"description": "JSON description of a set of player effects.",
	"type": "array",
	"items": {
		"type": "object",
		"properties": {
			"type": {
				"description": "The effect type.",
				"type": "string",
				"enum": [
					"extraTurn", "gainPoints", "scoreSmallestStructure", "followersInFeatureType", "adjacentToOccupiedFeature",
					"differentResourceTokens", "maxOwnedResourceType"
				]
			},
			"configuration": {
				"description": "The effect configuration.",
				"type": "object"
			},
			"conditions": {
				"description": "Condition to trigger the effect.",
				"$ref": "conditions.schema.json"
			}
		},
		"required": ["type"],
		"additionalProperties": false
	}
}