<?xml version="1.0" encoding="UTF-8" standalone="no"?>
<svg xmlns="http://www.w3.org/2000/svg" height="223.3913mm" width="228.83548mm" viewBox="0 0 228.83548 223.3913" version="1.1">
	<g transform="translate(-8.8195682,-11.181047)">
		<path transform="matrix(0.26458333,0,0,0.26458333,8.8195682,11.181047)"
			d="M 157.70181,839.48459 C 133.44258,819.82459 108.33333,794.22716 89.059706,769.50787 59.267111,731.29754 34.787882,684.0686 20.80542,637.82165 3.4238709,580.33222 -1.0490643,521.93047 7.4008017,462.80166 22.662244,356.00813 81.573791,257.74521 169.84467,191.84954 269.66788,117.32986 397.74116,89.044535 520.9161,114.31447 c 70.82893,14.5309 137.70238,46.95438 192.85714,93.50648 17.07593,14.41256 39.59936,37.33334 54.3785,55.33785 29.30972,35.70623 54.01007,79.83215 69.57143,124.28572 22.31536,63.74745 28.17079,132.14285 17.06121,199.28571 -7.635,46.1433 -24.51871,93.41115 -48.11507,134.70342 -7.31278,12.79692 -22.93928,36.29502 -31.07271,46.72515 -20.38279,26.13831 -43.91229,50.29504 -68.25193,70.07136 l -5.35714,4.35271 -269.64286,0.47686 -269.64286,0.47693 z"
			style="fill:#000000;stroke-width:0.714286"
		/>
	</g>
</svg>
