<?xml version="1.0" encoding="UTF-8" standalone="no"?>
<svg xmlns="http://www.w3.org/2000/svg" width="1000" height="1000" viewBox="0 0 264.58333 264.58334" version="1.1">
	<style type="text/css">
		.primary { fill: green; }
		.secondary { fill: #fff; }
	</style>
	<g>
		<path class="secondary" transform="scale(0.26458333)"
			d="m 878.35608,990.81817 c -14.34001,-3.65847 -12.35082,-1.8742 -86.60495,-77.68416 -37.41888,-38.20289 -91.89208,-94.05572 -121.05157,-124.11741 -29.1595,-30.06168 -53.29319,-54.6576 -53.63044,-54.6576 -0.33726,0 -21.98327,18.46654 -48.10225,41.03676 -31.07075,26.8492 -49.35351,42.00367 -52.8819,43.83348 -10.76244,5.58139 -20.80172,5.36877 -33.28419,-0.70492 -10.81727,-5.26345 -85.4963,-55.85895 -129.33435,-87.62485 C 265.01454,666.80555 202.75296,613.51098 169.40913,573.3504 132.8417,529.30721 88.394766,458.14422 36.843309,361.10224 18.889636,327.30572 10.549024,309.99601 9.2856556,303.9104 7.0166509,292.98066 9.6046396,282.51403 16.474312,274.83724 18.454269,272.62466 85.336779,221.92985 165.10211,162.18211 377.74301,2.9047348 358.84963,16.7279 368.10031,13.660376 c 10.2174,-3.388093 17.79858,-4.3154603 35.56634,-4.3506489 16.89364,-0.033457 24.9286,1.5592539 35.26332,6.9899959 12.3227,6.475398 29.08002,24.502147 36.78514,39.571752 5.3333,10.430792 7.36202,17.00709 10.78404,34.957458 10.41514,54.633097 32.86119,149.539557 47.61053,201.307017 21.27629,74.67588 37.78523,113.78113 68.26351,161.69799 10.47087,16.46193 19.52371,29.50222 51.53414,74.23305 15.46186,21.60614 32.88102,46.41616 38.70923,55.13336 l 10.59676,15.84945 4.13009,0.63474 c 2.27156,0.3491 7.05991,1.72072 10.64081,3.04803 6.33615,2.34858 7.24994,3.13882 34.08096,29.47287 15.16364,14.88276 70.24746,69.37184 122.4085,121.08683 96.50602,95.68078 103.43341,102.99291 109.59834,115.68522 10.26582,21.13547 8.37857,47.60615 -5.23827,73.47127 -12.22344,23.21834 -31.92431,39.22131 -57.73906,46.90127 -11.12584,3.31001 -32.62451,4.04851 -42.73861,1.46814 z"
		/>
		<path class="primary"
			d="m 234.62782,253.49053 c -0.42207,-0.10412 -0.99763,-0.31753 -1.27902,-0.47423 -0.90659,-0.50489 -65.97483,-67.2466 -66.41446,-68.12257 -1.36112,-2.71201 -3.04789,-2.51654 -7.537,0.8734 -0.73668,0.5563 -7.02762,5.9378 -13.97986,11.95888 -6.95223,6.02108 -12.78085,11.03615 -12.9525,11.14459 -0.33532,0.21183 -3.74733,-1.97463 -14.61038,-9.36253 C 85.935521,177.80004 61.860632,158.31292 51.583254,145.86555 42.222674,134.52853 30.228128,115.2043 17.017379,90.176973 13.140224,82.831829 11.034404,78.601971 11.190467,78.472734 13.597965,76.479092 99.417821,12.278011 99.892038,12.11587 c 2.301342,-0.786859 8.917262,-1.008207 11.023562,-0.368815 1.66587,0.505696 4.36018,3.025446 6.46258,6.043897 1.27756,1.834198 1.47193,2.292905 1.86486,4.400949 3.32466,17.836695 9.69301,44.822282 14.20923,60.210865 6.43972,21.942794 11.7865,33.283044 24.00745,50.918574 1.19592,1.72577 5.3605,7.55027 9.25461,12.94332 7.53065,10.42937 11.98111,16.83856 14.57092,20.98385 0.87604,1.40219 1.64192,2.54943 1.70198,2.54943 0.0601,0 0.85384,-0.48072 1.76396,-1.06828 0.91012,-0.58755 1.7552,-1.02879 1.87796,-0.98055 0.47205,0.18555 61.39796,60.50716 63.14554,62.51923 1.01488,1.16846 2.22306,2.8372 2.68484,3.70829 0.72897,1.3751 0.8376,1.82499 0.82441,3.41417 -0.0211,2.54187 -0.47413,4.30152 -1.85133,7.19072 -2.72416,5.71498 -8.11916,9.20748 -14.09585,9.12508 -1.06786,-0.0147 -2.28687,-0.11195 -2.70894,-0.21607 z m 4.3508,-12.01147 c 3.27866,-1.52254 4.20948,-5.87129 1.87572,-8.76333 -2.30297,-2.85388 -6.78736,-2.64404 -8.81047,0.41228 -1.38066,2.08575 -1.38104,4.34734 -9.4e-4,6.43204 1.48263,2.23986 4.4669,3.06554 6.93587,1.91901 z m -41.11203,-42.10981 c 1.9519,-1.0263 3.12337,-2.94771 3.12337,-5.12281 0,-4.36422 -4.60914,-7.03889 -8.35018,-4.84561 -4.92009,2.88455 -2.91127,10.46744 2.77298,10.46744 0.97863,0 1.83661,-0.17449 2.45383,-0.49902 z M 107.12038,39.6875 c 3.78534,-1.085698 6.54896,-5.326195 6.01196,-9.224763 -0.37096,-2.693115 -2.28763,-5.397161 -4.68206,-6.605469 -1.01048,-0.509919 -1.61454,-0.611881 -3.64154,-0.614662 -2.05903,-0.0028 -2.60588,0.09063 -3.58121,0.611996 -2.806593,1.50029 -4.362075,3.938089 -4.54944,7.130024 -0.251649,4.287071 2.08679,7.664404 6.06618,8.761184 1.6078,0.443138 2.67747,0.428884 4.37611,-0.05831 z"
		/>
	</g>
</svg>
