<?xml version="1.0" encoding="UTF-8" standalone="no"?>
<svg xmlns="http://www.w3.org/2000/svg" version="1.1" viewBox="0 0 228.83548 223.3913" height="223.3913mm" width="228.83548mm">
	<style type="text/css">
		.primary { fill: black; }
	</style>
	<g class="primary">
		<path
			d="M 50.8,145.983 V 132.96977 H 25.802908 0.80581543 l 1.91720177,-2.73875 c 4.1740364,-5.96268 6.9073711,-11.25047 7.9341618,-15.34907 0.959587,-3.83034 -0.129077,-8.17046 -3.6191922,-14.42846 C 5.7828125,98.202883 3.4166726,94.523659 1.9425549,92.530354 1.4012055,91.798339 0.95828323,91.158299 0.95828323,91.108044 c 0,-0.05026 11.21438677,-0.09138 24.92085977,-0.09138 H 50.8 V 77.928733 c 0,-7.198363 0.06051,-13.082408 0.134467,-13.075653 0.283792,0.0259 41.841382,47.00031 41.756448,47.19917 -0.129809,0.30395 -41.515683,46.813 -41.719711,46.88422 C 50.863482,158.97407 50.8,154.17103 50.8,145.983 Z"
		/>
		<path transform="scale(0.26458333)"
			d="m 547.56415,230.69996 c 2.80307,-60.12653 14.2639,-117.09329 28.90389,-143.668577 3.75425,-6.814921 13.43959,-21.133937 19.7865,-29.252783 6.59183,-8.432138 19.18045,-20.696681 24.44369,-23.814415 9.39442,-5.564875 18.89773,-7.152342 27.09128,-4.525427 19.79817,6.347445 25.59193,31.749529 16.09829,70.581162 -3.69111,15.0977 -8.24399,25.31862 -17.47526,39.23083 -10.15582,15.30559 -21.91312,29.36334 -40.15821,48.01565 -16.26733,16.63041 -41.46021,39.59563 -56.19518,51.22618 l -2.96748,2.34229 z M 420.36623,202.09994 C 395.4124,151.79061 382.43593,113.2856 380.2315,83.008356 c -0.67337,-9.248473 1.88629,-30.033001 5.40866,-43.918596 5.70713,-22.498197 16.15492,-34.8567836 31.47174,-37.2276057 12.77236,-1.97697729 25.11886,3.6292396 34.89121,15.8431727 8.78523,10.980185 17.1066,30.620331 21.10905,49.821721 1.41341,6.780731 1.44093,22.360153 0.0568,32.125893 -4.15808,29.336249 -17.26098,67.774119 -37.37258,109.633929 -2.89074,6.01666 -5.52215,10.93938 -5.8476,10.93938 -0.32545,0 -4.63759,-8.15684 -9.58253,-18.12631 z M 311.48997,251.28216 C 260.16241,209.39747 220.11193,167.17917 204.8897,138.91194 201.35178,132.34211 194.04625,114.05221 190.95066,104.01455 185.91218,87.676929 184.63793,73.300054 187.43724,64.373827 190.8346,53.5406 200.64917,46.74023 212.84995,46.765743 c 11.37827,0.02379 22.96978,5.11528 37.01973,16.260644 9.51127,7.544987 26.84876,25.929004 32.98897,34.980261 18.47047,27.227252 31.90407,80.626762 36.80144,146.288292 1.17102,15.7004 1.82356,15.14234 -8.17012,6.98722 z"
		/>
		<path
			d="m 157.04641,135.48423 -20.92279,-23.53889 1.61441,-1.81375 c 0.88794,-0.99756 10.30319,-11.58895 20.92279,-23.536414 l 19.30837,-21.722665 0.0897,13.027258 0.0896,13.027255 24.95963,0.08964 24.95964,0.08964 -1.51866,2.124273 c -4.73623,6.624937 -7.89114,13.026723 -8.51186,17.271803 -0.2559,1.75014 -0.0405,3.45679 0.75375,5.973 1.10902,3.51327 4.29991,9.34614 7.76554,14.19524 0.83783,1.17229 1.52332,2.16916 1.52332,2.21529 0,0.0461 -11.2542,0.0838 -25.00933,0.0838 h -25.00933 l -0.046,13.02667 -0.046,13.02667 z"
		/>
		<path
			d="m 56.328831,216.17521 c -2.767069,-0.91637 -4.328904,-2.7157 -5.237353,-6.03375 -0.441516,-1.61261 -0.42762,-6.52526 0.02561,-9.05028 1.115095,-6.21252 2.451468,-9.67455 5.491978,-14.22762 4.550865,-6.81478 13.192185,-15.8351 23.406684,-24.43326 1.392089,-1.17181 2.591022,-2.13056 2.664291,-2.13056 0.151878,0 0.01416,2.87715 -0.368994,7.70933 -1.104492,13.92906 -3.622563,25.61185 -6.938938,32.19375 -0.34453,0.68378 -1.291323,2.25172 -2.103985,3.48431 -4.522565,6.85955 -8.421386,10.83552 -11.971742,12.20865 -1.264923,0.48921 -3.888439,0.63679 -4.967545,0.27943 z m 58.088909,7.21526 c -2.53062,-0.36174 -5.43146,-2.46472 -7.3019,-5.29357 -2.5625,-3.87551 -4.79484,-10.29598 -5.07249,-14.58905 -0.37918,-5.86297 1.67183,-14.68103 5.8381,-25.10015 1.38742,-3.46968 3.85011,-8.99439 5.22312,-11.71731 l 0.61972,-1.22903 0.28509,0.43509 c 0.1568,0.23931 1.12967,2.12358 2.16194,4.18727 5.61864,11.23268 9.38861,21.638 10.42939,28.78568 0.51611,3.54449 0.29402,7.9515 -0.6358,12.61671 -1.47437,7.39736 -4.27018,11.196 -8.76823,11.91331 -1.29462,0.20645 -1.27156,0.20652 -2.77894,-0.009 z m 54.67906,-12.07819 c -3.11442,-0.67813 -6.65009,-2.9166 -10.4654,-6.62574 -2.55931,-2.48809 -4.99036,-5.29656 -6.20964,-7.17369 -3.98405,-6.13358 -6.86614,-16.09748 -8.59528,-29.7154 -0.49247,-3.87844 -0.99179,-9.47008 -0.99179,-11.10646 v -1.07712 l 0.49304,0.35146 c 0.27117,0.19331 1.9856,1.59745 3.80984,3.12032 13.43555,11.21595 23.26193,21.91764 26.71356,29.09318 0.95475,1.98481 2.43556,5.85431 3.23806,8.46134 0.92991,3.02097 1.15518,4.42152 1.14789,7.13661 -0.006,2.17813 -0.0605,2.64518 -0.41304,3.53224 -1.26575,3.18468 -4.87762,4.84147 -8.72724,4.00326 z"
		/>
	</g>
</svg>
