<?xml version="1.0" encoding="UTF-8" standalone="no"?>
<svg xmlns="http://www.w3.org/2000/svg" width="1000" height="1000" viewBox="0 0 264.58333 264.58334" version="1.1">
	<style type="text/css">
		.primary { fill: black; }
		.secondary { fill: #ffdd55; }
	</style>
	<g class="secondary">
		<path
			d="M 52.916666,235.47916 H 211.66666 c 0,0 -49.90286,-39.54102 -79.49573,-39.52306 -29.52082,0.0179 -79.254264,39.52306 -79.254264,39.52306 z"
		/>
		<path
			d="m 138.90625,150.8125 a 9.260417,9.260417 0 0 1 -9.24398,9.2604 9.260417,9.260417 0 0 1 -9.2768,-9.22751 9.260417,9.260417 0 0 1 9.21102,-9.29318 9.260417,9.260417 0 0 1 9.30952,9.19451 l 0,0 z"
		>
		<animateTransform attributeName="transform"
				attributeType="XML"
				from="0 -30"
				to="-10 70"
				dur="2s"
				repeatCount="indefinite" />
		</path>
		<path transform="translate(-10 -70)"
			d="m 152.13542,179.91667 a 9.260417,9.260417 0 0 1 -9.24397,9.2604 9.260417,9.260417 0 0 1 -9.27681,-9.22751 9.260417,9.260417 0 0 1 9.21102,-9.29317 9.260417,9.260417 0 0 1 9.30952,9.1945 l 0,0 z"
		>
		<animateTransform attributeName="transform"
				attributeType="XML"
				from="-10 -70"
				to="0 30"
				begin="0.8s"
				dur="2s"
				repeatCount="indefinite" />
		</path>
		<path
			d="m 55.562499,55.562499 c 0,0 48.998671,13.084174 74.083331,13.229167 26.82285,0.15504 79.375,-13.229167 79.375,-13.229167 l -15.875,42.333333 -42.33333,23.812498 c 0,0 -11.80705,8.13479 -18.52084,7.9375 -21.6836,-0.6372 -58.208328,-29.10416 -58.208328,-29.10416 z"
		/>
	</g>
	<g class="primary">
		<path transform="scale(0.26458333)"
			d="m 21.192579,998.11193 c -9.506297,-3.3319 -16.5583348,-10.46068 -19.3100979,-19.5203 -1.66632929,-5.486 -1.7599508,-7.71111 -1.50628075,-35.79976 l 0.27048164,-29.95023 2.40254601,-4.8899 c 3.2134884,-6.54035 10.223951,-13.06405 16.604244,-15.45123 4.855771,-1.81679 6.252367,-1.87857 42.440214,-1.87857 h 37.419218 l 0.431899,-1.96056 c 0.237537,-1.07831 1.449757,-7.84224 2.693797,-15.03097 9.55844,-55.23358 25.82374,-120.6956 41.34381,-166.39402 20.9587,-61.71228 42.92776,-103.70456 66.59512,-127.29179 7.23722,-7.21272 10.18113,-9.47069 16.74815,-12.84577 15.75147,-8.09538 33.28092,-12.61795 64.7911,-16.71599 43.3246,-5.63455 51.74085,-6.93442 62.73796,-9.68969 28.04113,-7.02561 41.54793,-18.58435 44.59128,-38.15998 1.91127,-12.29379 -1.63634,-25.3669 -9.41983,-34.71247 -7.95203,-9.54792 -22.11972,-18.36285 -42.14233,-26.22036 -5.51136,-2.16283 -21.98007,-7.67133 -36.59715,-12.24113 -41.19376,-12.87859 -54.15809,-17.5758 -68.728,-24.9014 -11.2681,-5.66549 -22.06827,-13.46054 -29.40286,-21.22159 -34.45808,-36.4616 -74.57538,-130.36934 -107.84242,-252.44067 l -5.580411,-20.47697 -37.7798,-0.44104 C 25.108467,109.44742 24.050743,109.38706 19.216891,107.43882 12.630917,104.78441 6.1781433,98.61384 3.0929183,92.020011 L 0.64668199,86.791848 V 54.987188 23.182528 L 3.0929183,17.954365 C 6.1754118,11.366376 12.629685,5.1922263 19.216891,2.5301937 L 24.173417,0.52715431 H 499.93627 975.69912 l 4.92066,1.98961849 c 6.95608,2.8126178 12.3193,7.8588112 15.74218,14.8116182 l 2.8639,5.817492 v 31.822983 31.822982 l -2.2665,4.832243 c -2.85013,6.076459 -6.88383,10.704449 -11.88413,13.634799 -7.2634,4.25666 -10.88661,4.5957 -49.26821,4.6104 -27.65167,0.0106 -35.61268,0.25526 -35.88402,1.10281 -0.19179,0.59906 -2.31338,8.53934 -4.71459,17.64505 -14.41605,54.66704 -35.3594,116.86154 -54.17001,160.86625 -20.73495,48.50639 -43.63757,86.37835 -60.45241,99.96459 -16.80884,13.58138 -35.86301,22.36649 -75.00863,34.58346 -61.89476,19.31676 -76.90142,25.76941 -90.83359,39.05719 -10.35612,9.87714 -14.32466,18.65588 -14.43689,31.93562 -0.15723,18.60446 7.34973,30.20495 25.15,38.86428 13.42456,6.53067 27.40295,9.51233 69.22847,14.76681 67.48906,8.47855 85.18343,15.92201 106.75629,44.90903 33.6744,45.2476 63.70131,125.97049 86.6983,233.07542 3.38715,15.7751 12.1865,61.66337 12.1865,63.55195 0,0.20791 17.35096,0.48779 38.5577,0.62198 l 38.55771,0.24389 4.92144,2.30737 c 6.26726,2.93831 11.61689,8.28794 14.55521,14.5552 l 2.30736,4.92145 v 32.24034 32.24034 l -2.40687,4.90097 c -2.83837,5.77982 -9.50367,12.32164 -15.26676,14.98409 l -4.11038,1.89895 -476.19854,0.17793 c -428.108167,0.1599 -476.587559,0.0418 -480.050731,-1.17233 z M 817.8528,882.56186 C 791.05,783.75899 756.19103,692.88195 726.47253,644.33428 710.80404,618.7385 700.49467,607.88552 680.87964,596.33733 669.33922,589.543 654.993,583.19149 626.28355,572.16599 c -40.72466,-15.63979 -60.30502,-26.12342 -71.8586,-38.47425 -11.70986,-12.51787 -16.41898,-27.30497 -14.05866,-44.14555 3.13197,-22.34605 17.73827,-39.86489 48.44876,-58.10957 5.75098,-3.41658 26.14081,-13.98762 45.31074,-23.4912 46.76552,-23.18421 60.80467,-31.92428 76.51441,-47.63401 24.45754,-24.45755 57.24577,-93.11893 88.5886,-185.51215 7.76977,-22.90395 20.06111,-61.98342 20.06111,-63.78294 0,-0.92826 -57.80722,-1.13342 -319.35364,-1.13342 -212.32457,0 -319.35364,0.29204 -319.35364,0.87137 0,1.85691 15.05873,49.41526 21.80121,68.85243 25.87789,74.60052 49.6528,128.05287 72.08131,162.05811 4.53798,6.8803 9.50005,12.90979 15.83371,19.23974 16.16629,16.15685 27.28749,23.06707 76.31925,47.42144 39.16645,19.45421 49.24382,25.1004 62.14559,34.81916 17.54807,13.21878 26.78643,26.24745 30.14662,42.51514 3.90044,18.88326 -1.07585,35.53746 -14.65958,49.06135 -11.7535,11.70173 -26.62921,20.17121 -54.97726,31.30129 -61.79054,24.26034 -72.49708,29.48529 -88.31434,43.0988 -31.14027,26.80161 -71.2516,113.75148 -106.8001,231.51207 -5.27872,17.48668 -13.57641,47.31437 -13.57641,48.80309 0,0.99701 50.73449,1.18505 319.72833,1.18505 H 820.0393 Z"
		/>
	</g>
</svg>
