<?xml version="1.0" encoding="UTF-8" standalone="no"?>
<svg xmlns="http://www.w3.org/2000/svg" version="1.1" viewBox="0 0 228.83548 223.3913" height="223.3913mm" width="228.83548mm">
	<style type="text/css">
		.primary { fill: grey; }
		.secondary { fill: #fff; }
	</style>
	<g transform="translate(-8.8195682,-11.181047)">
		<path class="secondary"
			d="m 132.21094,14.505859 c -7.08986,0.02086 -13.82015,2.888541 -20.96289,6.759766 -7.14274,3.871225 -14.249749,8.94587 -19.796878,14.755859 -6.159458,6.451337 -9.799774,13.656561 -11.671875,22.869141 -1.238073,6.092534 -1.703515,12.991514 -1.863281,21.982422 -1.112561,-0.285441 -2.243314,-0.575838 -3.310547,-0.849609 -1.117683,-0.286714 -1.864915,-0.485549 -2.876953,-0.748047 0.8049,-3.118283 1.732572,-6.630813 2.474609,-9.216797 1.923221,-6.702376 3.617475,-11.670666 5.109375,-15.177735 0.829053,-1.948887 8.782265,-18.212431 11.398438,-23.113281 0.442161,-0.828297 0.824289,-1.572611 1.138671,-2.230469 0.157192,-0.328928 0.288038,-0.605318 0.466797,-1.050781 0.08938,-0.222731 0.188624,-0.412159 0.373047,-1.123047 0.09221,-0.355444 0.28889,-0.710805 0.259766,-2.195312 -0.0073,-0.371127 -0.03347,-0.829462 -0.160157,-1.447266 -0.06334,-0.308902 -0.153038,-0.658614 -0.292968,-1.054687 -0.13993,-0.396074 -0.607084,-1.319725 -0.607422,-1.320313 -6.77e-4,-0.0012 -2.838846,-2.876361 -2.839844,-2.876953 -9.98e-4,-5.92e-4 -4.059224,-1.113281 -4.060547,-1.113281 -2.546621,0 -2.64907,0.4351 -3.050781,0.595703 -0.401711,0.160603 -0.615748,0.269546 -0.8125,0.36914 -0.393503,0.199189 -0.668916,0.358429 -0.974609,0.53711 -0.611388,0.357361 -1.282507,0.774169 -2.06836,1.273437 -1.571706,0.998538 -3.557785,2.305397 -5.65039,3.708985 -4.185211,2.807175 -8.553477,5.80806 -10.998047,7.714844 -7.108909,5.545011 -11.355705,9.887423 -14.875,15.5 -3.383825,5.396529 -7.415461,14.1853 -10.613282,22.287109 -0.257721,-0.0473 -0.486004,-0.09978 -0.824218,-0.140625 -0.288469,-0.03484 -0.591706,-0.07931 -1.263672,-0.07227 -0.335983,0.0035 -0.750347,-0.0025 -1.5625,0.16211 -0.812153,0.164629 -2.332625,0.156327 -4.449219,2.582031 -1.585023,1.81648 -1.298062,2.025173 -1.427734,2.353515 -0.129672,0.328343 -0.181161,0.501838 -0.228516,0.654297 -0.09471,0.304919 -0.143756,0.493738 -0.195312,0.695313 -0.103113,0.403149 -0.195357,0.805296 -0.298829,1.269531 -0.206942,0.928471 -0.444133,2.061749 -0.671874,3.199219 -0.227742,1.137469 -0.442335,2.262912 -0.605469,3.183594 -0.08157,0.46034 -0.149744,0.853638 -0.208985,1.269531 -0.02962,0.207946 -0.05758,0.397685 -0.08789,0.773437 -0.01516,0.187877 -0.04048,0.392963 -0.02734,0.919922 0.0066,0.26348 0.0056,0.59242 0.134766,1.285156 0.06458,0.346369 0.152406,0.78829 0.419922,1.466797 0.133757,0.339254 0.315903,0.740831 0.609374,1.222657 0.293472,0.481825 1.339345,1.651873 1.339844,1.652343 7.29e-4,6.87e-4 0.91468,0.751538 1.171875,0.916016 0.257195,0.164478 0.429086,0.256332 0.56836,0.330078 0.278547,0.147491 0.427962,0.212715 0.548828,0.265625 0.07585,0.0332 0.08868,0.03441 0.142578,0.05664 -1.759964,8.189051 -3.228804,16.622671 -3.542969,22.230471 -0.486228,8.679 1.37226,22.39092 4.585938,39.08398 0.373349,1.93932 0.676924,3.40194 0.96875,4.57813 0.145912,0.58809 0.229034,1.00636 0.574218,1.90234 0.172593,0.44799 -0.119761,0.8142 1.722657,2.77344 0.921208,0.97962 3.881287,3.30645 7.857421,2.25976 3.976135,-1.04668 4.949577,-3.6949 5.371094,-4.73242 0.538339,-1.32504 0.369827,-1.0875 0.462891,-1.43164 0.09306,-0.34413 0.192698,-0.73136 0.304687,-1.17773 0.223979,-0.89274 0.491878,-2.00532 0.763672,-3.17383 2.911986,-12.51936 6.437741,-25.70578 8.261719,-31.1836 0.956865,-2.87368 5.331186,-13.91349 8.505859,-21.27148 0.80882,0.19646 1.319767,0.31968 2.269532,0.55078 4.981153,1.21206 11.78415,2.87077 19.203125,4.68555 2.864271,0.70064 6.13812,1.50213 9.164062,2.24219 -2.53312,6.48002 -4.506651,13.27768 -5.685547,20.1289 -0.240036,1.39498 -0.311561,2.44186 -0.476562,3.63282 -1.276002,-2.02164 -3.021543,-3.73887 -5.13086,-4.72266 -4.399866,-2.05212 -9.199192,-1.42002 -13.246093,0.57226 -5.371085,2.6442 -9.727813,6.88278 -13.216797,11.84375 -1.098532,1.56201 -2.73003,4.08305 -3.265625,6.96875 -0.535595,2.88571 -0.407325,5.14494 -0.416016,9.63086 -0.0086,4.46382 -0.11327,6.71368 -0.183594,7.14649 -0.07032,0.4328 0.35318,-0.5153 -0.544921,0.875 -0.849416,1.31492 -2.02375,2.54427 -7.191407,6.38672 -2.837586,2.10991 -5.44166,4.10458 -7.496093,6.18554 -3.820135,3.86946 -6.415264,9.10101 -6.392579,14.58985 0.02464,5.96059 2.295383,10.89791 5.636719,15.59375 2.690796,3.78157 6.445205,7.47926 10.228516,10.33203 11.580603,8.73229 25.597716,13.6567 38.490234,12.33984 2.663518,-0.27205 5.179042,-0.44604 8.052734,-1.9707 2.873693,-1.52466 4.427814,-3.51115 6.146488,-5.56445 1.26801,-1.51491 1.62025,-1.80452 1.59961,-1.82422 0.29576,-0.0372 2.45372,0.0578 4.33789,0.66992 -0.69164,-0.22468 3.9939,1.69301 7.24804,3.26953 6.57007,3.18299 10.61258,4.92384 14.88282,5.58789 6.66061,1.0358 13.38256,-1.32642 20.97656,-6.06836 9.78369,-6.1092 15.77091,-11.07274 18.43945,-18.20508 0.60505,-1.61717 0.66301,-2.28892 0.89063,-3.45703 0.22761,-1.1681 0.43944,-2.46426 0.60937,-3.75586 0.61708,-4.69004 0.63348,-4.73869 1.16016,-5.93945 0.45705,-1.04201 1.64861,-2.89225 5.47851,-7.33984 4.56707,-5.30362 6.13592,-7.46077 9.39063,-12.88282 4.24074,-7.06469 5.88893,-12.56349 6.17383,-20.5664 0.24469,-6.87339 -0.55641,-13.63774 -2.28711,-20.41602 4.59535,1.12321 11.90516,2.91348 12.71679,3.10742 a 7.9559142,7.9559142 0 0 0 0.002,0.002 l 2.54297,0.60742 a 7.9559142,7.9559142 0 0 0 9.72461,-6.62695 l 0.59375,-4.21094 c 0.17072,-1.2106 0.31426,-2.31718 0.41601,-3.19141 0.0509,-0.43711 0.0911,-0.80314 0.12305,-1.18164 0.016,-0.18925 0.033,-0.35999 0.043,-0.69531 0.005,-0.16766 0.0166,-0.34974 -0.0137,-0.82031 -0.0151,-0.23529 -0.0246,-0.52471 -0.15821,-1.15625 -0.0668,-0.31577 -0.15518,-0.71895 -0.41797,-1.36328 -0.13139,-0.32217 -0.60509,-1.18691 -0.60547,-1.1875 -3.7e-4,-6e-4 -1.39453,-1.68096 -1.39843,-1.68555 -4.1e-4,-3.7e-4 -1.13185,-0.87043 -1.42774,-1.03906 -0.29588,-0.16864 -0.48426,-0.25736 -0.63476,-0.32618 -0.301,-0.13763 -0.45073,-0.18968 -0.57227,-0.23437 -0.24308,-0.0894 -0.34465,-0.11847 -0.43555,-0.14649 -0.18178,-0.056 -0.2733,-0.0807 -0.37109,-0.10742 -0.19557,-0.0534 -0.37592,-0.1 -0.59766,-0.15625 -0.44347,-0.11258 -1.02356,-0.25599 -1.73046,-0.42773 -1.41382,-0.34349 -3.32239,-0.79827 -5.41211,-1.28906 -5.94754,-1.39686 -16.27645,-3.87393 -26.67969,-6.38282 -4.05848,-5.515305 -9.04334,-11.530784 -15.02344,-18.166012 2.71045,-2.208734 5.12617,-4.750918 7.06641,-7.646485 3.51373,-5.243859 5.22057,-11.401016 5.48633,-18.511719 0.15812,-4.230932 -0.4081,-2.352316 0.95312,-4.433593 1.05332,-1.610497 1.8999,-2.923565 2.61523,-4.701172 0.71534,-1.777608 1.01607,-3.945219 1.02149,-5.4375 0.009,-2.447397 -0.69723,-5.934532 -2.2832,-8.570313 -1.58598,-2.63578 -3.49836,-4.633485 -6.28907,-7.517578 -3.6003,-3.72079 -7.28181,-6.584468 -11.38476,-8.546875 -6.40388,-3.062911 -16.20271,-6.308464 -23.23633,-7.101562 -0.73101,-0.08242 -1.43848,-0.115317 -2.13281,-0.113282 z M 33.863281,74.46875 c -0.01107,0.0293 -0.13737,0.340495 -0.189453,0.466797 0.01785,-0.06072 0.0017,-0.153099 0.189453,-0.466797 z m 77.531249,1.25 c -0.0312,0.05733 0.0378,0.116874 -0.23242,0.498047 0.0844,-0.179918 0.18855,-0.405178 0.22851,-0.486328 0.0335,-0.06809 0.0533,-0.102534 0.004,-0.01172 z m -3.98047,8.710938 c 1.04691,0.625911 2.09042,1.243303 3.10156,1.722656 -0.87478,0.768916 -1.68344,1.568384 -2.44921,2.394531 -0.85306,-0.21457 -1.48166,-0.374333 -2.29102,-0.578125 0.51689,-1.059903 1.09187,-2.341129 1.63867,-3.539062 z M 34.160156,95.015625 c 0.162761,0.05013 0.550782,0.171224 0.582032,0.181641 -0.08146,0.0021 -0.229714,0.0095 -0.582032,-0.181641 z m 54.390625,56.958985 c 0.01387,1.31544 -8.31e-4,3.0653 0.06836,4.04883 0.128768,1.83041 0.51198,3.49437 0.871093,4.82422 1.233644,4.56836 3.676807,9.42347 7.019532,15.08007 3.632984,6.14783 6.658954,9.44101 13.796874,14.87696 0.93619,0.71296 1.38898,1.23389 2.13477,1.90039 -0.88521,-0.28749 -1.17398,-0.36642 -2.69727,-0.86524 -6.56341,-2.14924 -10.201659,-3.0303 -14.007812,-3.0332 -3.944724,-0.003 -8.161399,1.30284 -12.154297,3.51367 -3.617142,2.00278 -5.70098,2.96443 -6.480469,3.21094 -0.779488,0.24651 -0.19369,0.21974 -1.375,0.0215 -1.341197,-0.22509 -5.099384,-1.60346 -6.152343,-2.22851 -0.383982,-0.22794 -0.492594,-0.39909 -0.759766,-0.61524 0.788849,-0.42525 1.590638,-0.86177 2.46875,-1.29882 4.0479,-2.01474 6.406109,-3.37769 8.304688,-5.30078 1.705753,-1.72778 3.921631,-5.37095 4.408203,-8.73438 0.486572,-3.36343 0.292259,-6.5854 0.02539,-12.08789 -0.107137,-2.20906 -0.107938,-3.23658 -0.109375,-3.2168 -0.0014,0.0198 -0.157888,0.58661 0.173829,-0.39453 -0.138183,0.40872 1.554845,-3.6064 2.90625,-6.30664 0.729591,-1.45779 1.036745,-2.28297 1.558593,-3.39453 z"
		/>
		<path class="primary"
			d="m 134.81301,19.478966 c -8.62043,0.02612 -25.36955,9.30378 -34.837118,19.516903 -5.372264,5.795326 -7.901576,10.923376 -9.577791,19.418983 -1.348704,6.835677 -1.845685,13.924085 -1.847001,26.338002 -2.37e-4,2.13125 0.0026,3.716758 0.01079,5.020416 -4.145811,-1.096607 -8.82575,-2.334134 -13.025117,-3.44363 -5.637732,-1.489521 -10.302414,-2.761895 -10.366134,-2.827522 -0.160111,-0.164906 2.55604,-11.162506 4.326631,-17.517736 1.964321,-7.050588 3.720605,-12.407001 5.405848,-16.487187 1.374464,-3.327752 8.808815,-18.866694 11.636524,-24.322424 0.791846,-1.527773 1.371006,-2.777771 1.28684,-2.777771 -0.621154,0 -14.7412,9.75558 -18.557904,12.82178 -6.765015,5.434773 -9.91698,8.787116 -12.956252,13.779283 -3.123157,5.129956 -8.099174,16.090141 -11.177088,24.618304 -0.618632,1.714087 -1.197561,3.199574 -1.286323,3.301248 -0.08877,0.101668 -1.636571,-0.232395 -3.439619,-0.742608 -1.803047,-0.510214 -3.354789,-0.837699 -3.448353,-0.727261 -0.196128,0.231499 -1.904749,9.019233 -1.777625,9.142612 0.04639,0.04502 1.386742,0.474629 2.978638,0.954859 1.591897,0.480226 2.968154,0.949888 3.058294,1.043781 0.09014,0.09389 -0.114714,1.390473 -0.45481,2.880983 -2.116602,9.27625 -3.908063,20.283039 -4.212544,25.880679 -0.376238,6.91683 1.294098,21.25639 4.43044,38.03556 0.71579,3.82942 1.176809,5.74456 1.304827,5.42003 0.108885,-0.27603 0.624791,-2.39201 1.146538,-4.7023 2.93424,-12.99277 6.385669,-26.39042 8.415833,-32.67002 1.244168,-3.84841 5.521367,-14.88108 8.767353,-22.614383 2.198409,-5.237529 2.632267,-6.084337 3.07628,-6.003857 0.284307,0.05153 12.594358,3.136072 27.355574,6.854977 5.708618,1.438213 11.570939,2.914893 18.265489,4.601203 -4.17009,8.43797 -7.29736,18.07603 -8.89018,27.60992 -1.045637,6.25874 -1.218738,8.65647 -1.203582,16.66662 0.01447,7.65127 0.03347,7.93016 0.720505,10.55054 0.836497,3.19043 3.039197,7.99482 6.154617,13.42466 3.44886,6.01101 4.75887,7.45566 11.70283,12.90223 4.62208,3.62539 7.49861,6.5172 8.45488,8.50057 0.94615,1.96236 0.97539,4.10681 0.0802,5.91811 -1.24525,2.51949 -2.85805,3.4219 -6.07805,3.40182 -2.4358,-0.0152 -3.78305,-0.34773 -10.2726,-2.53641 -6.36241,-2.14581 -8.71412,-2.69992 -11.473104,-2.70208 -2.869408,-0.002 -4.757788,0.58811 -8.250354,2.57981 -7.410266,4.22586 -9.31755,4.84687 -12.952657,4.21853 -2.719788,-0.47013 -6.530516,-1.89736 -8.847522,-3.31396 -6.083211,-3.71922 -7.750474,-9.45097 -3.735117,-12.83977 0.617127,-0.52084 3.29353,-2.05984 5.947513,-3.42035 3.897509,-1.99797 5.080835,-2.7405 6.154616,-3.86071 2.446708,-2.5525 2.661414,-4.07909 2.137365,-15.20787 -0.213797,-4.54021 -0.20696,-4.63753 0.471255,-6.70359 0.37851,-1.15307 1.868387,-4.52583 3.311142,-7.49491 3.065434,-6.30842 3.698116,-8.07549 3.698116,-10.32982 0,-4.73886 -4.272391,-6.79032 -9.072102,-4.35668 -3.244612,1.64515 -7.540503,5.66307 -10.166221,9.50837 -2.22958,3.26516 -2.204331,3.12613 -2.221644,12.33058 -0.01726,9.18155 -0.07926,9.57382 -1.990897,12.6217 -1.568635,2.50102 -3.736232,4.56857 -9.077241,8.65884 -2.587165,1.9813 -5.532681,4.46694 -6.545705,5.52378 -2.726123,2.84399 -4.086918,5.9122 -4.073788,9.18442 0.01268,3.15843 1.694187,7.74044 4.140594,11.28151 1.809752,2.61954 5.634212,6.5848 8.488812,8.80174 10.084213,7.83163 22.704535,12.09014 32.710544,11.03751 5.072872,-0.53366 5.585763,-0.81408 8.858828,-4.84151 3.118137,-3.83679 3.772757,-4.30976 6.522077,-4.71077 2.13615,-0.31159 5.06367,0.063 7.89215,1.00937 1.11697,0.37371 4.81351,2.06797 8.21438,3.76492 6.32236,3.1547 9.88871,4.57464 12.5662,5.00347 4.51067,0.72246 8.45854,-0.57387 15.45642,-5.0744 9.27796,-5.9669 13.44478,-9.9885 15.11624,-14.58964 0.29153,-0.80252 0.76755,-3.31994 1.05814,-5.59472 0.63059,-4.93631 0.93463,-6.37484 1.75244,-8.2952 0.99319,-2.33211 2.74415,-4.83177 6.69886,-9.56181 4.48049,-5.35889 5.37369,-6.61966 8.551,-12.07123 3.98989,-6.84582 4.7513,-9.45006 5.01784,-17.16151 0.30866,-8.92998 -1.11566,-17.49061 -4.41658,-26.54549 -0.64929,-1.78113 -1.46733,-3.64853 -2.45649,-5.61006 0.55392,0.13969 1.30209,0.32787 1.8321,0.46155 12.44573,3.13905 23.76654,5.98757 25.15756,6.3299 l 2.52897,0.62247 0.59048,-4.31222 c 0.32475,-2.37173 0.54847,-4.35217 0.49696,-4.40061 -0.0515,-0.0485 -3.4681,-0.90409 -7.59254,-1.90176 -6.55374,-1.58532 -17.78601,-4.35439 -29.27608,-7.21279 -4.58604,-6.69879 -10.74129,-14.348881 -18.64988,-23.209837 l -3.92373,-4.396373 1.91485,-0.992435 c 4.34813,-2.25356 8.14035,-5.659418 10.72433,-9.631157 2.74123,-4.213492 3.88993,-8.317578 4.1226,-14.729378 0.16962,-4.674386 0.50326,-5.974143 2.23295,-8.697998 1.92546,-3.03215 2.32026,-4.041598 2.32699,-5.954632 0.0121,-3.44417 -0.94821,-5.088003 -6.29902,-10.783443 -3.14502,-3.347589 -5.95995,-5.54636 -9.05051,-7.068811 -4.73934,-2.334653 -16.44533,-6.047017 -20.58118,-6.527335 -0.3828,-0.04445 -0.78682,-0.06586 -1.21078,-0.06458 z m -27.5375,50.49158 c 0.14332,-0.01363 0.4025,0.302275 0.61927,0.772777 0.53396,1.158941 2.06891,2.526213 5.12576,4.565748 3.23783,2.16028 4.59771,2.800088 7.64857,3.596598 5.80617,1.515861 9.71757,3.029154 9.71757,3.760152 0,0.20165 -1.51144,1.212729 -3.35893,2.246879 -7.54268,4.222092 -9.93927,6.280025 -13.17878,11.31592 -0.0254,0.03949 -0.0502,0.08004 -0.0756,0.119624 -7.00772,-1.812395 -13.22068,-3.422677 -17.336844,-4.500116 2.272246,-2.964956 5.011374,-8.383363 8.687184,-17.147753 1.03145,-2.459343 1.97596,-4.575575 2.09831,-4.702835 0.0153,-0.01591 0.033,-0.02505 0.0534,-0.02699 z"
		/>
	</g>
</svg>
