<?xml version="1.0" encoding="UTF-8" standalone="no"?>
<svg xmlns="http://www.w3.org/2000/svg" width="250px" height="250px" viewBox="0 0 228.83548 223.3913" version="1.1">
	<style type="text/css">
		.primary { fill: #ffc0cb; }
		.secondary { fill: #000; }
	</style>
	<g transform="matrix(0.95054317,0,0,0.95054317,-2.1302725,-3.2645192)">
		<path class="secondary"
			d="m 104.22656,1.1035156 a 8.0142873,8.0142873 0 0 0 -7.033201,4.171875 h 1.060547 c -0.303354,6.43e-5 -0.742766,0.019802 -1.072265,0.021484 a 8.0142873,8.0142873 0 0 0 -0.96875,3.8203125 V 5.3183594 c -3.315073,0.029064 -7.320618,0.091868 -10.191407,0.2109375 l -5.93164,0.2460937 a 8.0142873,8.0142873 0 0 0 -6.367188,3.609375 L 71.832031,12.265625 C 68.777856,16.91802 65.342742,23.941771 62.875,30.191406 c -2.120865,5.37116 -1.238631,4.098785 -3.876953,6.486328 -2.494942,2.257793 -10.011145,5.864028 -34.105469,13.716797 a 8.0142873,8.0142873 0 0 0 -0.002,0 L 13.044922,54.255859 A 8.0142873,8.0142873 0 0 0 7.515625,61.875 v 9.302734 9.304688 a 8.0142873,8.0142873 0 0 0 8.064453,8.013672 l 43.779297,-0.28125 a 8.0142873,8.0142873 0 0 0 0.002,0 l 35.703125,-0.230469 -0.01172,9.304687 a 8.0142873,8.0142873 0 0 0 0,0.002 c -0.01237,9.455534 -0.242851,43.001454 -0.511718,74.367184 -0.149008,17.38381 -0.237268,31.74799 -0.261719,41.85938 -0.01223,5.05569 -0.0086,9.0434 0.01172,11.8418 0.01018,1.39919 0.02461,2.49441 0.04492,3.32421 0.01015,0.41491 0.02014,0.75561 0.03906,1.10547 0.0095,0.17494 0.02011,0.34399 0.04687,0.61133 0.02676,0.26734 -0.272259,0.0572 0.46875,2.07813 1.459469,3.98052 3.734952,5.92737 6.791015,7.61328 2.94605,1.62521 4.80002,1.42526 8.30469,1.54882 3.50467,0.12357 9.16361,0.19018 19.18359,0.28321 12.42308,0.11529 26.26018,0.20068 30.98438,0.18945 l 8.33984,-0.0195 a 8.0142873,8.0142873 0 0 0 3.86328,-1.00391 l 2.03516,-1.12695 c 3.53868,-1.95995 6.92283,-5.79247 8.02734,-9.83594 0.46826,-1.71428 0.28622,-1.58931 0.31446,-1.97656 0.0282,-0.38725 0.0467,-0.76861 0.0645,-1.22461 0.0354,-0.91199 0.065,-2.09945 0.0918,-3.64453 0.0536,-3.09017 0.0952,-7.58663 0.12891,-13.67578 0.0673,-12.17831 0.0986,-30.70701 0.0996,-56.75 l 0.002,-65.554689 17.78321,0.160157 c 7.10225,0.06446 13.61379,0.138331 18.36718,0.207031 2.3767,0.03435 4.3165,0.06705 5.65235,0.0957 0.66792,0.01432 1.18805,0.02847 1.5039,0.03906 0.15793,0.0053 0.27183,0.01163 0.27344,0.01172 8.1e-4,4.4e-5 -0.0193,-8.51e-4 -0.14258,-0.01172 -0.1233,-0.01087 0.33901,0.281715 -1.60351,-0.318359 2.64371,0.816755 6.36211,-0.43864 7.79101,-1.738281 1.42891,-1.299641 1.73841,-2.201499 2,-2.808594 0.52319,-1.21419 0.53021,-1.642791 0.60157,-2.058594 0.14272,-0.831605 0.16584,-1.320082 0.20507,-1.970703 0.0785,-1.301241 0.12168,-3.00764 0.15821,-5.544922 0.073,-5.074564 0.0977,-13.358545 0.0977,-26.542969 V 13.666016 a 8.0142873,8.0142873 0 0 0 -8.01367,-8.0136722 h -26.5332 -19.3086 a 8.0142873,8.0142873 0 0 0 -7.2246,-4.5488282 h -35.25196 z"
		/>
		<path class="primary"
			d="m 128.72973,232.92859 c -19.93725,-0.1851 -22.58511,-0.27862 -23.59035,-0.83317 -1.43224,-0.7901 -2.68111,-2.12364 -3.12654,-3.33851 -0.21074,-0.57474 -0.15564,-23.14963 0.14093,-57.74917 0.26782,-31.24307 0.49712,-64.59417 0.50958,-74.11357 l 0.0226,-17.308006 -43.594964,0.280688 -43.594967,0.280682 V 70.88304 61.618547 L 27.291202,57.774294 C 51.42483,49.908715 59.684017,46.472152 64.13559,42.443709 c 2.994147,-2.709545 3.731776,-3.884945 5.927158,-9.444822 2.241801,-5.677433 5.74322,-12.708126 8.169121,-16.403225 l 1.88267,-2.867664 5.907111,-0.245004 c 3.248913,-0.134753 8.582257,-0.24557 11.851881,-0.246262 l 5.944769,-0.0013 V 11.159524 9.0835733 h 35.10244 35.10244 v 2.2646727 2.264674 h 26.42119 26.4212 v 33.014647 c 0,26.237812 -0.0969,32.984724 -0.47182,32.868894 -0.25949,-0.08016 -12.0641,-0.250963 -26.23246,-0.379561 l -25.76066,-0.233812 -0.002,73.332772 c -0.002,51.85398 -0.1229,73.77497 -0.41451,74.84255 -0.58877,2.15542 -1.83519,3.62789 -4.16171,4.91646 l -2.02681,1.12267 -8.30381,0.0198 c -4.56709,0.0109 -18.40991,-0.0741 -30.76181,-0.18872 z"
		/>
	</g>
</svg>